application,brand,brand_facet,collection_facet,collection_name,color,color_code,gallery_images,installation,installation_facet,length,lifestyle,lifestyle_facet,location,location_facet,made_in_the_usa,manufacturer,name,oversized,returns_accepted,ship_unit,shipping,size,sku,sku_display,sku_manufacturer,status,style_code,swatch,thickness,warranty_text,width
,Shaw Floors,Shaw Floors,SFA Casa,SFA Casa,Antico,00747,mmllc-images.s3.amazonaws.com/shaw/sa355_00747_room.jpg,Float,Loose Lay,48.03 IN,"Kid/Pet Friendly,Eco,Stain Resistant,Wear Resistant",Wear Resistant,Above/On/Below,All Grades,No,Shaw,Shaw Floors SFA Casa Antico,No,Yes,Carton,0,"6"" x 4' 0""",00747_SA355,00747_SA355,00747_SA355,active,SA355,mmllc-images.s3.amazonaws.com/shaw/sa355_00747_main.jpg,7.137 mm,https://shawfloors.com/flooring/how-to/carpet/warranties/warranty-highlights,"5 7/8"""
,Shaw Floors,Shaw Floors,SFA Casa,SFA Casa,Bianco,00107,mmllc-images.s3.amazonaws.com/shaw/sa355_00107_room.jpg,Float,Loose Lay,48.03 IN,"Kid/Pet Friendly,Eco,Stain Resistant,Wear Resistant",Wear Resistant,Above/On/Below,All Grades,No,Shaw,Shaw Floors SFA Casa Bianco,No,Yes,Carton,0,"6"" x 4' 0""",00107_SA355,00107_SA355,00107_SA355,active,SA355,mmllc-images.s3.amazonaws.com/shaw/sa355_00107_main.jpg,7.137 mm,https://shawfloors.com/flooring/how-to/carpet/warranties/warranty-highlights,"5 7/8"""
,Shaw Floors,Shaw Floors,SFA Casa,SFA Casa,Chiatta,00533,mmllc-images.s3.amazonaws.com/shaw/sa355_00533_room.jpg,Float,Loose Lay,48.03 IN,"Kid/Pet Friendly,Eco,Stain Resistant,Wear Resistant",Wear Resistant,Above/On/Below,All Grades,No,Shaw,Shaw Floors SFA Casa Chiatta,No,Yes,Carton,0,"6"" x 4' 0""",00533_SA355,00533_SA355,00533_SA355,active,SA355,mmllc-images.s3.amazonaws.com/shaw/sa355_00533_main.jpg,7.137 mm,https://shawfloors.com/flooring/how-to/carpet/warranties/warranty-highlights,"5 7/8"""
,Shaw Floors,Shaw Floors,SFA Casa,SFA Casa,Colori,00506,mmllc-images.s3.amazonaws.com/shaw/sa355_00506_room.jpg,Float,Loose Lay,48.03 IN,"Kid/Pet Friendly,Eco,Stain Resistant,Wear Resistant",Wear Resistant,Above/On/Below,All Grades,No,Shaw,Shaw Floors SFA Casa Colori,No,Yes,Carton,0,"6"" x 4' 0""",00506_SA355,00506_SA355,00506_SA355,active,SA355,mmllc-images.s3.amazonaws.com/shaw/sa355_00506_main.jpg,7.137 mm,https://shawfloors.com/flooring/how-to/carpet/warranties/warranty-highlights,"5 7/8"""
,Shaw Floors,Shaw Floors,SFA Casa,SFA Casa,Frutta,00609,mmllc-images.s3.amazonaws.com/shaw/sa355_00609_room.jpg,Float,Loose Lay,48.03 IN,"Kid/Pet Friendly,Eco,Stain Resistant,Wear Resistant",Wear Resistant,Above/On/Below,All Grades,No,Shaw,Shaw Floors SFA Casa Frutta,No,Yes,Carton,0,"6"" x 4' 0""",00609_SA355,00609_SA355,00609_SA355,active,SA355,mmllc-images.s3.amazonaws.com/shaw/sa355_00609_main.jpg,7.137 mm,https://shawfloors.com/flooring/how-to/carpet/warranties/warranty-highlights,"5 7/8"""
,Shaw Floors,Shaw Floors,SFA Casa,SFA Casa,Giallo,00643,mmllc-images.s3.amazonaws.com/shaw/sa355_00643_room.jpg,Float,Loose Lay,48.03 IN,"Kid/Pet Friendly,Eco,Stain Resistant,Wear Resistant",Wear Resistant,Above/On/Below,All Grades,No,Shaw,Shaw Floors SFA Casa Giallo,No,Yes,Carton,0,"6"" x 4' 0""",00643_SA355,00643_SA355,00643_SA355,active,SA355,mmllc-images.s3.amazonaws.com/shaw/sa355_00643_main.jpg,7.137 mm,https://shawfloors.com/flooring/how-to/carpet/warranties/warranty-highlights,"5 7/8"""
,Shaw Floors,Shaw Floors,SFA Casa,SFA Casa,Latte,00209,mmllc-images.s3.amazonaws.com/shaw/sa355_00209_room.jpg,Float,Loose Lay,48.03 IN,"Kid/Pet Friendly,Eco,Stain Resistant,Wear Resistant",Wear Resistant,Above/On/Below,All Grades,No,Shaw,Shaw Floors SFA Casa Latte,No,Yes,Carton,0,"6"" x 4' 0""",00209_SA355,00209_SA355,00209_SA355,active,SA355,mmllc-images.s3.amazonaws.com/shaw/sa355_00209_main.jpg,7.137 mm,https://shawfloors.com/flooring/how-to/carpet/warranties/warranty-highlights,"5 7/8"""
,Shaw Floors,Shaw Floors,SFA Casa,SFA Casa,Luce,00128,mmllc-images.s3.amazonaws.com/shaw/sa355_00128_room.jpg,Float,Loose Lay,48.03 IN,"Kid/Pet Friendly,Eco,Stain Resistant,Wear Resistant",Wear Resistant,Above/On/Below,All Grades,No,Shaw,Shaw Floors SFA Casa Luce,No,Yes,Carton,0,"6"" x 4' 0""",00128_SA355,00128_SA355,00128_SA355,active,SA355,mmllc-images.s3.amazonaws.com/shaw/sa355_00128_main.jpg,7.137 mm,https://shawfloors.com/flooring/how-to/carpet/warranties/warranty-highlights,"5 7/8"""
,Shaw Floors,Shaw Floors,SFA Casa,SFA Casa,Marrone,00724,mmllc-images.s3.amazonaws.com/shaw/sa355_00724_room.jpg,Float,Loose Lay,48.03 IN,"Kid/Pet Friendly,Eco,Stain Resistant,Wear Resistant",Wear Resistant,Above/On/Below,All Grades,No,Shaw,Shaw Floors SFA Casa Marrone,No,Yes,Carton,0,"6"" x 4' 0""",00724_SA355,00724_SA355,00724_SA355,active,SA355,mmllc-images.s3.amazonaws.com/shaw/sa355_00724_main.jpg,7.137 mm,https://shawfloors.com/flooring/how-to/carpet/warranties/warranty-highlights,"5 7/8"""
,Shaw Floors,Shaw Floors,SFA Casa,SFA Casa,Molo,00125,mmllc-images.s3.amazonaws.com/shaw/sa355_00125_room.jpg,Float,Loose Lay,48.03 IN,"Kid/Pet Friendly,Eco,Stain Resistant,Wear Resistant",Wear Resistant,Above/On/Below,All Grades,No,Shaw,Shaw Floors SFA Casa Molo,No,Yes,Carton,0,"6"" x 4' 0""",00125_SA355,00125_SA355,00125_SA355,active,SA355,mmllc-images.s3.amazonaws.com/shaw/sa355_00125_main.jpg,7.137 mm,https://shawfloors.com/flooring/how-to/carpet/warranties/warranty-highlights,"5 7/8"""
,Shaw Floors,Shaw Floors,SFA Casa,SFA Casa,Oro,00255,mmllc-images.s3.amazonaws.com/shaw/sa355_00255_room.jpg,Float,Loose Lay,48.03 IN,"Kid/Pet Friendly,Eco,Stain Resistant,Wear Resistant",Wear Resistant,Above/On/Below,All Grades,No,Shaw,Shaw Floors SFA Casa Oro,No,Yes,Carton,0,"6"" x 4' 0""",00255_SA355,00255_SA355,00255_SA355,active,SA355,mmllc-images.s3.amazonaws.com/shaw/sa355_00255_main.jpg,7.137 mm,https://shawfloors.com/flooring/how-to/carpet/warranties/warranty-highlights,"5 7/8"""
,Shaw Floors,Shaw Floors,SFA Casa,SFA Casa,Pera,00526,mmllc-images.s3.amazonaws.com/shaw/sa355_00526_room.jpg,Float,Loose Lay,48.03 IN,"Kid/Pet Friendly,Eco,Stain Resistant,Wear Resistant",Wear Resistant,Above/On/Below,All Grades,No,Shaw,Shaw Floors SFA Casa Pera,No,Yes,Carton,0,"6"" x 4' 0""",00526_SA355,00526_SA355,00526_SA355,active,SA355,mmllc-images.s3.amazonaws.com/shaw/sa355_00526_main.jpg,7.137 mm,https://shawfloors.com/flooring/how-to/carpet/warranties/warranty-highlights,"5 7/8"""
,Shaw Floors,Shaw Floors,SFA Casa,SFA Casa,Rosso,00710,mmllc-images.s3.amazonaws.com/shaw/sa355_00710_room.jpg,Float,Loose Lay,48.03 IN,"Kid/Pet Friendly,Eco,Stain Resistant,Wear Resistant",Wear Resistant,Above/On/Below,All Grades,No,Shaw,Shaw Floors SFA Casa Rosso,No,Yes,Carton,0,"6"" x 4' 0""",00710_SA355,00710_SA355,00710_SA355,active,SA355,mmllc-images.s3.amazonaws.com/shaw/sa355_00710_main.jpg,7.137 mm,https://shawfloors.com/flooring/how-to/carpet/warranties/warranty-highlights,"5 7/8"""
,Shaw Floors,Shaw Floors,SFA Casa,SFA Casa,Teak,00603,mmllc-images.s3.amazonaws.com/shaw/sa355_00603_room.jpg,Float,Loose Lay,48.03 IN,"Kid/Pet Friendly,Eco,Stain Resistant,Wear Resistant",Wear Resistant,Above/On/Below,All Grades,No,Shaw,Shaw Floors SFA Casa Teak,No,Yes,Carton,0,"6"" x 4' 0""",00603_SA355,00603_SA355,00603_SA355,active,SA355,mmllc-images.s3.amazonaws.com/shaw/sa355_00603_main.jpg,7.137 mm,https://shawfloors.com/flooring/how-to/carpet/warranties/warranty-highlights,"5 7/8"""
Residential,Shaw Floors,Shaw Floors,Resilient Residential Great Basin,Resilient Residential Great Basin,Cornerstone,00117,mmllc-images.s3.amazonaws.com/shaw/0611v_00117_room.jpg,,,,"Kid/Pet Friendly,Eco,Stain Resistant,Wear Resistant",Wear Resistant,,,No,Shaw,Shaw Floors Resilient Residential Great Basin Cornerstone,No,Yes,Carton,0,"12' x ",00117_0611V,00117_0611V,00117_0611V,active,0611V,mmllc-images.s3.amazonaws.com/shaw/0611v_00117_main.jpg,,https://shawfloors.com/flooring/how-to/carpet/warranties/warranty-highlights,"144"""
Residential,Shaw Floors,Shaw Floors,Resilient Residential Great Basin,Resilient Residential Great Basin,Crossbeam,00541,mmllc-images.s3.amazonaws.com/shaw/0611v_00541_room.jpg,,,,"Kid/Pet Friendly,Eco,Stain Resistant,Wear Resistant",Wear Resistant,,,No,Shaw,Shaw Floors Resilient Residential Great Basin Crossbeam,No,Yes,Carton,0,"12' x ",00541_0611V,00541_0611V,00541_0611V,active,0611V,mmllc-images.s3.amazonaws.com/shaw/0611v_00541_main.jpg,,https://shawfloors.com/flooring/how-to/carpet/warranties/warranty-highlights,"144"""
Residential,Shaw Floors,Shaw Floors,Resilient Residential Great Basin,Resilient Residential Great Basin,Descendant,00108,mmllc-images.s3.amazonaws.com/shaw/0611v_00108_room.jpg,,,,"Kid/Pet Friendly,Eco,Stain Resistant,Wear Resistant",Wear Resistant,,,No,Shaw,Shaw Floors Resilient Residential Great Basin Descendant,No,Yes,Carton,0,"12' x ",00108_0611V,00108_0611V,00108_0611V,active,0611V,mmllc-images.s3.amazonaws.com/shaw/0611v_00108_main.jpg,,https://shawfloors.com/flooring/how-to/carpet/warranties/warranty-highlights,"144"""
Residential,Shaw Floors,Shaw Floors,Resilient Residential Great Basin,Resilient Residential Great Basin,Expanse,00127,mmllc-images.s3.amazonaws.com/shaw/0611v_00127_room.jpg,,,,"Kid/Pet Friendly,Eco,Stain Resistant,Wear Resistant",Wear Resistant,,,No,Shaw,Shaw Floors Resilient Residential Great Basin Expanse,No,Yes,Carton,0,"12' x ",00127_0611V,00127_0611V,00127_0611V,active,0611V,mmllc-images.s3.amazonaws.com/shaw/0611v_00127_main.jpg,,https://shawfloors.com/flooring/how-to/carpet/warranties/warranty-highlights,"144"""
Residential,Shaw Floors,Shaw Floors,Resilient Residential Great Basin,Resilient Residential Great Basin,Facet,00133,mmllc-images.s3.amazonaws.com/shaw/0611v_00133_room.jpg,,,,"Kid/Pet Friendly,Eco,Stain Resistant,Wear Resistant",Wear Resistant,,,No,Shaw,Shaw Floors Resilient Residential Great Basin Facet,No,Yes,Carton,0,"12' x ",00133_0611V,00133_0611V,00133_0611V,active,0611V,mmllc-images.s3.amazonaws.com/shaw/0611v_00133_main.jpg,,https://shawfloors.com/flooring/how-to/carpet/warranties/warranty-highlights,"144"""
Residential,Shaw Floors,Shaw Floors,Resilient Residential Great Basin,Resilient Residential Great Basin,Fireside,00811,mmllc-images.s3.amazonaws.com/shaw/0611v_00811_room.jpg,,,,"Kid/Pet Friendly,Eco,Stain Resistant,Wear Resistant",Wear Resistant,,,No,Shaw,Shaw Floors Resilient Residential Great Basin Fireside,No,Yes,Carton,0,"12' x ",00811_0611V,00811_0611V,00811_0611V,active,0611V,mmllc-images.s3.amazonaws.com/shaw/0611v_00811_main.jpg,,https://shawfloors.com/flooring/how-to/carpet/warranties/warranty-highlights,"144"""
Residential,Shaw Floors,Shaw Floors,Resilient Residential Great Basin,Resilient Residential Great Basin,Hearthboard,00804,mmllc-images.s3.amazonaws.com/shaw/0611v_00804_room.jpg,,,,"Kid/Pet Friendly,Eco,Stain Resistant,Wear Resistant",Wear Resistant,,,No,Shaw,Shaw Floors Resilient Residential Great Basin Hearthboard,No,Yes,Carton,0,"12' x ",00804_0611V,00804_0611V,00804_0611V,active,0611V,mmllc-images.s3.amazonaws.com/shaw/0611v_00804_main.jpg,,https://shawfloors.com/flooring/how-to/carpet/warranties/warranty-highlights,"144"""
Residential,Shaw Floors,Shaw Floors,Resilient Residential Great Basin,Resilient Residential Great Basin,Keystone,00114,mmllc-images.s3.amazonaws.com/shaw/0611v_00114_room.jpg,,,,"Kid/Pet Friendly,Eco,Stain Resistant,Wear Resistant",Wear Resistant,,,No,Shaw,Shaw Floors Resilient Residential Great Basin Keystone,No,Yes,Carton,0,"12' x ",00114_0611V,00114_0611V,00114_0611V,active,0611V,mmllc-images.s3.amazonaws.com/shaw/0611v_00114_main.jpg,,https://shawfloors.com/flooring/how-to/carpet/warranties/warranty-highlights,"144"""
Residential,Shaw Floors,Shaw Floors,Resilient Residential Great Basin,Resilient Residential Great Basin,Manifest,00721,mmllc-images.s3.amazonaws.com/shaw/0611v_00721_room.jpg,,,,"Kid/Pet Friendly,Eco,Stain Resistant,Wear Resistant",Wear Resistant,,,No,Shaw,Shaw Floors Resilient Residential Great Basin Manifest,No,Yes,Carton,0,"12' x ",00721_0611V,00721_0611V,00721_0611V,active,0611V,mmllc-images.s3.amazonaws.com/shaw/0611v_00721_main.jpg,,https://shawfloors.com/flooring/how-to/carpet/warranties/warranty-highlights,"144"""
Residential,Shaw Floors,Shaw Floors,Resilient Residential Great Basin,Resilient Residential Great Basin,Mission,00224,mmllc-images.s3.amazonaws.com/shaw/0611v_00224_room.jpg,,,,"Kid/Pet Friendly,Eco,Stain Resistant,Wear Resistant",Wear Resistant,,,No,Shaw,Shaw Floors Resilient Residential Great Basin Mission,No,Yes,Carton,0,"12' x ",00224_0611V,00224_0611V,00224_0611V,active,0611V,mmllc-images.s3.amazonaws.com/shaw/0611v_00224_main.jpg,,https://shawfloors.com/flooring/how-to/carpet/warranties/warranty-highlights,"144"""
Residential,Shaw Floors,Shaw Floors,Resilient Residential Great Basin,Resilient Residential Great Basin,Outpost,00602,mmllc-images.s3.amazonaws.com/shaw/0611v_00602_room.jpg,,,,"Kid/Pet Friendly,Eco,Stain Resistant,Wear Resistant",Wear Resistant,,,No,Shaw,Shaw Floors Resilient Residential Great Basin Outpost,No,Yes,Carton,0,"12' x ",00602_0611V,00602_0611V,00602_0611V,active,0611V,mmllc-images.s3.amazonaws.com/shaw/0611v_00602_main.jpg,,https://shawfloors.com/flooring/how-to/carpet/warranties/warranty-highlights,"144"""
Residential,Shaw Floors,Shaw Floors,Resilient Residential Great Basin,Resilient Residential Great Basin,Pathfinder,00551,mmllc-images.s3.amazonaws.com/shaw/0611v_00551_room.jpg,,,,"Kid/Pet Friendly,Eco,Stain Resistant,Wear Resistant",Wear Resistant,,,No,Shaw,Shaw Floors Resilient Residential Great Basin Pathfinder,No,Yes,Carton,0,"12' x ",00551_0611V,00551_0611V,00551_0611V,active,0611V,mmllc-images.s3.amazonaws.com/shaw/0611v_00551_main.jpg,,https://shawfloors.com/flooring/how-to/carpet/warranties/warranty-highlights,"144"""
Residential,Shaw Floors,Shaw Floors,Resilient Residential Great Basin,Resilient Residential Great Basin,Stronghold,00529,mmllc-images.s3.amazonaws.com/shaw/0611v_00529_room.jpg,,,,"Kid/Pet Friendly,Eco,Stain Resistant,Wear Resistant",Wear Resistant,,,No,Shaw,Shaw Floors Resilient Residential Great Basin Stronghold,No,Yes,Carton,0,"12' x ",00529_0611V,00529_0611V,00529_0611V,active,0611V,mmllc-images.s3.amazonaws.com/shaw/0611v_00529_main.jpg,,https://shawfloors.com/flooring/how-to/carpet/warranties/warranty-highlights,"144"""
Residential,Shaw Floors,Shaw Floors,Resilient Residential Great Basin,Resilient Residential Great Basin,Tavern,00532,mmllc-images.s3.amazonaws.com/shaw/0611v_00532_room.jpg,,,,"Kid/Pet Friendly,Eco,Stain Resistant,Wear Resistant",Wear Resistant,,,No,Shaw,Shaw Floors Resilient Residential Great Basin Tavern,No,Yes,Carton,0,"12' x ",00532_0611V,00532_0611V,00532_0611V,active,0611V,mmllc-images.s3.amazonaws.com/shaw/0611v_00532_main.jpg,,https://shawfloors.com/flooring/how-to/carpet/warranties/warranty-highlights,"144"""
Residential,Shaw Floors,Shaw Floors,Resilient Residential Great Basin,Resilient Residential Great Basin,Trailblazer,00233,mmllc-images.s3.amazonaws.com/shaw/0611v_00233_room.jpg,,,,"Kid/Pet Friendly,Eco,Stain Resistant,Wear Resistant",Wear Resistant,,,No,Shaw,Shaw Floors Resilient Residential Great Basin Trailblazer,No,Yes,Carton,0,"12' x ",00233_0611V,00233_0611V,00233_0611V,active,0611V,mmllc-images.s3.amazonaws.com/shaw/0611v_00233_main.jpg,,https://shawfloors.com/flooring/how-to/carpet/warranties/warranty-highlights,"144"""
,Shaw Floors,Shaw Floors,Resilient Residential Rock Creek Tile,Resilient Residential Rock Creek Tile,Lake,00576,mmllc-images.s3.amazonaws.com/shaw/0314v_00576_room.jpg,Float,Loose Lay,23.74 IN,"Kid/Pet Friendly,Eco,Stain Resistant,Wear Resistant",Wear Resistant,Above/On/Below,All Grades,No,Shaw,Shaw Floors Resilient Residential Rock Creek Tile Lake,No,Yes,Carton,0,"1' 0"" x 1' 12""",00576_0314V,00576_0314V,00576_0314V,active,0314V,mmllc-images.s3.amazonaws.com/shaw/0314v_00576_main.jpg,3.962 mm,https://shawfloors.com/flooring/how-to/carpet/warranties/warranty-highlights,"12 1/4"""
,Shaw Floors,Shaw Floors,Resilient Residential Rock Creek Tile,Resilient Residential Rock Creek Tile,Millstone,00212,mmllc-images.s3.amazonaws.com/shaw/0314v_00212_room.jpg,Float,Loose Lay,23.74 IN,"Kid/Pet Friendly,Eco,Stain Resistant,Wear Resistant",Wear Resistant,Above/On/Below,All Grades,No,Shaw,Shaw Floors Resilient Residential Rock Creek Tile Millstone,No,Yes,Carton,0,"1' 0"" x 1' 12""",00212_0314V,00212_0314V,00212_0314V,active,0314V,mmllc-images.s3.amazonaws.com/shaw/0314v_00212_main.jpg,3.962 mm,https://shawfloors.com/flooring/how-to/carpet/warranties/warranty-highlights,"12 1/4"""
,Shaw Floors,Shaw Floors,Resilient Residential Rock Creek Tile,Resilient Residential Rock Creek Tile,Quarry,00275,mmllc-images.s3.amazonaws.com/shaw/0314v_00275_room.jpg,Float,Loose Lay,23.74 IN,"Kid/Pet Friendly,Eco,Stain Resistant,Wear Resistant",Wear Resistant,Above/On/Below,All Grades,No,Shaw,Shaw Floors Resilient Residential Rock Creek Tile Quarry,No,Yes,Carton,0,"1' 0"" x 1' 12""",00275_0314V,00275_0314V,00275_0314V,active,0314V,mmllc-images.s3.amazonaws.com/shaw/0314v_00275_main.jpg,3.962 mm,https://shawfloors.com/flooring/how-to/carpet/warranties/warranty-highlights,"12 1/4"""
,Shaw Floors,Shaw Floors,Resilient Residential Rock Creek Tile,Resilient Residential Rock Creek Tile,Reed,00313,mmllc-images.s3.amazonaws.com/shaw/0314v_00313_room.jpg,Float,Loose Lay,23.74 IN,"Kid/Pet Friendly,Eco,Stain Resistant,Wear Resistant",Wear Resistant,Above/On/Below,All Grades,No,Shaw,Shaw Floors Resilient Residential Rock Creek Tile Reed,No,Yes,Carton,0,"1' 0"" x 1' 12""",00313_0314V,00313_0314V,00313_0314V,active,0314V,mmllc-images.s3.amazonaws.com/shaw/0314v_00313_main.jpg,3.962 mm,https://shawfloors.com/flooring/how-to/carpet/warranties/warranty-highlights,"12 1/4"""
,Shaw Floors,Shaw Floors,Resilient Residential Rock Creek Tile,Resilient Residential Rock Creek Tile,Water Fall,00261,mmllc-images.s3.amazonaws.com/shaw/0314v_00261_room.jpg,Float,Loose Lay,23.74 IN,"Kid/Pet Friendly,Eco,Stain Resistant,Wear Resistant",Wear Resistant,Above/On/Below,All Grades,No,Shaw,Shaw Floors Resilient Residential Rock Creek Tile Water Fall,No,Yes,Carton,0,"1' 0"" x 1' 12""",00261_0314V,00261_0314V,00261_0314V,active,0314V,mmllc-images.s3.amazonaws.com/shaw/0314v_00261_main.jpg,3.962 mm,https://shawfloors.com/flooring/how-to/carpet/warranties/warranty-highlights,"12 1/4"""
,Shaw Floors,Shaw Floors,Resilient Residential Rock Creek Tile,Resilient Residential Rock Creek Tile,Whitewater,00127,mmllc-images.s3.amazonaws.com/shaw/0314v_00127_room.jpg,Float,Loose Lay,23.74 IN,"Kid/Pet Friendly,Eco,Stain Resistant,Wear Resistant",Wear Resistant,Above/On/Below,All Grades,No,Shaw,Shaw Floors Resilient Residential Rock Creek Tile Whitewater,No,Yes,Carton,0,"1' 0"" x 1' 12""",00127_0314V,00127_0314V,00127_0314V,active,0314V,mmllc-images.s3.amazonaws.com/shaw/0314v_00127_main.jpg,3.962 mm,https://shawfloors.com/flooring/how-to/carpet/warranties/warranty-highlights,"12 1/4"""
Residential,Shaw Floors,Shaw Floors,Resilient Residential Belmore,Resilient Residential Belmore,Natural Walnut,00247,mmllc-images.s3.amazonaws.com/shaw/00247_0147V_20130122_DININGROOM_1.jpg|mmllc-images.s3.amazonaws.com/shaw/00247_0147V_20130408_LIVINGROOM_2_SQUARE.jpg|mmllc-images.s3.amazonaws.com/shaw/00247_0147V_20130408_LIVINGROOM_3_SQUARE.jpg|mmllc-images.s3.amazonaws.com/shaw/00247_0147V_20130523_BEDROOM_2_SQUARE.jpg|mmllc-images.s3.amazonaws.com/shaw/00247_0147V_20141218_BEDROOM_1_SQUARE.jpg|mmllc-images.s3.amazonaws.com/shaw/00247_0147V_20141218_BEDROOM_4_SQUARE.jpg|mmllc-images.s3.amazonaws.com/shaw/00247_0147V_20141218_KITCHEN_2_SQUARE.jpg|mmllc-images.s3.amazonaws.com/shaw/00247_0147V_20141231_LIVINGROOM_2_SQUARE.jpg|mmllc-images.s3.amazonaws.com/shaw/00247_0147V_20150128_BEDROOM_2_SQUARE.jpg|mmllc-images.s3.amazonaws.com/shaw/00247_0147V_20150128_LIVINGROOM_4_SQUARE.jpg|mmllc-images.s3.amazonaws.com/shaw/00247_0147V_20150128_LIVINGROOM_6_SQUARE.jpg|mmllc-images.s3.amazonaws.com/shaw/00247_0147V_20150128_LIVINGROOM_7_SQUARE.jpg|mmllc-images.s3.amazonaws.com/shaw/00247_0147V_20160222_LIVINGROOM_1_SQUARE.jpg|mmllc-images.s3.amazonaws.com/shaw/00247_0147V_20160222_LIVINGROOM_2_SQUARE.jpg|mmllc-images.s3.amazonaws.com/shaw/00247_0147V_20160222_LIVINGROOM_3_SQUARE.jpg,,,,"Kid/Pet Friendly,Eco,Stain Resistant,Wear Resistant",Wear Resistant,,,No,Shaw,Shaw Floors Resilient Residential Belmore Natural Walnut,No,Yes,Carton,0,"12' x ",00247_0147V,00247_0147V,00247_0147V,active,0147V,mmllc-images.s3.amazonaws.com/shaw/0147v_00247_main.jpg,,https://shawfloors.com/flooring/how-to/carpet/warranties/warranty-highlights,"144"""
,Shaw Floors,Shaw Floors,Resilient Residential New Market 20,Resilient Residential New Market 20,Boca,00780,,Direct Glue,Glue Down / Adhesive,47.24 IN,"Kid/Pet Friendly,Eco,Stain Resistant,Wear Resistant",Wear Resistant,Above/On/Below,All Grades,No,Shaw,Shaw Floors Resilient Residential New Market 20 Boca,No,Yes,Carton,0,"6"" x 3' 11""",00780_0243V,00780_0243V,00780_0243V,active,0243V,mmllc-images.s3.amazonaws.com/shaw/0243v_00780_main.jpg,2.769 mm,https://shawfloors.com/flooring/how-to/carpet/warranties/warranty-highlights,"5 7/8"""
,Shaw Floors,Shaw Floors,Resilient Residential New Market 20,Resilient Residential New Market 20,Breckenridge,00722,,Direct Glue,Glue Down / Adhesive,47.24 IN,"Kid/Pet Friendly,Eco,Stain Resistant,Wear Resistant",Wear Resistant,Above/On/Below,All Grades,No,Shaw,Shaw Floors Resilient Residential New Market 20 Breckenridge,No,Yes,Carton,0,"6"" x 3' 11""",00722_0243V,00722_0243V,00722_0243V,active,0243V,mmllc-images.s3.amazonaws.com/shaw/0243v_00722_main.jpg,2.769 mm,https://shawfloors.com/flooring/how-to/carpet/warranties/warranty-highlights,"5 7/8"""
,Shaw Floors,Shaw Floors,Resilient Residential New Market 20,Resilient Residential New Market 20,Burlington,00650,mmllc-images.s3.amazonaws.com/shaw/0243v_00650_room.jpg,Direct Glue,Glue Down / Adhesive,47.24 IN,"Kid/Pet Friendly,Eco,Stain Resistant,Wear Resistant",Wear Resistant,Above/On/Below,All Grades,No,Shaw,Shaw Floors Resilient Residential New Market 20 Burlington,No,Yes,Carton,0,"6"" x 3' 11""",00650_0243V,00650_0243V,00650_0243V,active,0243V,mmllc-images.s3.amazonaws.com/shaw/0243v_00650_main.jpg,2.769 mm,https://shawfloors.com/flooring/how-to/carpet/warranties/warranty-highlights,"5 7/8"""
,Shaw Floors,Shaw Floors,Resilient Residential New Market 20,Resilient Residential New Market 20,Melrose,00515,,Direct Glue,Glue Down / Adhesive,47.24 IN,"Kid/Pet Friendly,Eco,Stain Resistant,Wear Resistant",Wear Resistant,Above/On/Below,All Grades,No,Shaw,Shaw Floors Resilient Residential New Market 20 Melrose,No,Yes,Carton,0,"6"" x 3' 11""",00515_0243V,00515_0243V,00515_0243V,active,0243V,mmllc-images.s3.amazonaws.com/shaw/0243v_00515_main.jpg,2.769 mm,https://shawfloors.com/flooring/how-to/carpet/warranties/warranty-highlights,"5 7/8"""
,Shaw Floors,Shaw Floors,Resilient Residential New Market 20,Resilient Residential New Market 20,Sweet Auburn,00260,mmllc-images.s3.amazonaws.com/shaw/00260_0243V_20130408_BEDROOM_2_SQUARE.jpg|mmllc-images.s3.amazonaws.com/shaw/00260_0243V_20130408_LIVINGROOM_2_SQUARE.jpg|mmllc-images.s3.amazonaws.com/shaw/00260_0243V_20130408_LIVINGROOM_3_SQUARE.jpg|mmllc-images.s3.amazonaws.com/shaw/00260_0243V_20130523_BEDROOM_2_SQUARE.jpg|mmllc-images.s3.amazonaws.com/shaw/00260_0243V_20141218_BEDROOM_1_SQUARE.jpg|mmllc-images.s3.amazonaws.com/shaw/00260_0243V_20141218_BEDROOM_4_SQUARE.jpg|mmllc-images.s3.amazonaws.com/shaw/00260_0243V_20141231_LIVINGROOM_2_SQUARE.jpg|mmllc-images.s3.amazonaws.com/shaw/00260_0243V_20150128_BEDROOM_2_SQUARE.jpg|mmllc-images.s3.amazonaws.com/shaw/00260_0243V_20150128_LIVINGROOM_4_SQUARE.jpg|mmllc-images.s3.amazonaws.com/shaw/00260_0243V_20150128_LIVINGROOM_6_SQUARE.jpg|mmllc-images.s3.amazonaws.com/shaw/00260_0243V_20160222_LIVINGROOM_2_SQUARE.jpg,Direct Glue,Glue Down / Adhesive,47.24 IN,"Kid/Pet Friendly,Eco,Stain Resistant,Wear Resistant",Wear Resistant,Above/On/Below,All Grades,No,Shaw,Shaw Floors Resilient Residential New Market 20 Sweet Auburn,No,Yes,Carton,0,"6"" x 3' 11""",00260_0243V,00260_0243V,00260_0243V,active,0243V,mmllc-images.s3.amazonaws.com/shaw/0243v_00260_main.jpg,2.769 mm,https://shawfloors.com/flooring/how-to/carpet/warranties/warranty-highlights,"5 7/8"""
Residential,Shaw Floors,Shaw Floors,Resilient Residential Kingsgrove,Resilient Residential Kingsgrove,Expresso,00777,mmllc-images.s3.amazonaws.com/shaw/0163v_00777_room.jpg,,,,"Kid/Pet Friendly,Eco,Stain Resistant,Wear Resistant",Wear Resistant,,,No,Shaw,Shaw Floors Resilient Residential Kingsgrove Expresso,No,Yes,Carton,0,"12' x ",00777_0163V,00777_0163V,00777_0163V,active,0163V,mmllc-images.s3.amazonaws.com/shaw/0163v_00777_main.jpg,,https://shawfloors.com/flooring/how-to/carpet/warranties/warranty-highlights,"144"""
,Shaw Floors,Shaw Floors,Resilient Residential Classico Plank,Resilient Residential Classico Plank,Antico,00747,mmllc-images.s3.amazonaws.com/shaw/0426v_00747_room.jpg,Float,Loose Lay,48.03 IN,"Kid/Pet Friendly,Eco,Stain Resistant,Wear Resistant",Wear Resistant,Above/On/Below,All Grades,No,Shaw,Shaw Floors Resilient Residential Classico Plank Antico,No,Yes,Carton,0,"6"" x 4' 0""",00747_0426V,00747_0426V,00747_0426V,active,0426V,mmllc-images.s3.amazonaws.com/shaw/0426v_00747_main.jpg,7.137 mm,https://shawfloors.com/flooring/how-to/carpet/warranties/warranty-highlights,"5 7/8"""
,Shaw Floors,Shaw Floors,Resilient Residential Classico Plank,Resilient Residential Classico Plank,Bianco,00107,mmllc-images.s3.amazonaws.com/shaw/0426v_00107_room.jpg,Float,Loose Lay,48.03 IN,"Kid/Pet Friendly,Eco,Stain Resistant,Wear Resistant",Wear Resistant,Above/On/Below,All Grades,No,Shaw,Shaw Floors Resilient Residential Classico Plank Bianco,No,Yes,Carton,0,"6"" x 4' 0""",00107_0426V,00107_0426V,00107_0426V,active,0426V,mmllc-images.s3.amazonaws.com/shaw/0426v_00107_main.jpg,7.137 mm,https://shawfloors.com/flooring/how-to/carpet/warranties/warranty-highlights,"5 7/8"""
,Shaw Floors,Shaw Floors,Resilient Residential Classico Plank,Resilient Residential Classico Plank,Chiatta,00533,mmllc-images.s3.amazonaws.com/shaw/0426v_00533_room.jpg,Float,Loose Lay,48.03 IN,"Kid/Pet Friendly,Eco,Stain Resistant,Wear Resistant",Wear Resistant,Above/On/Below,All Grades,No,Shaw,Shaw Floors Resilient Residential Classico Plank Chiatta,No,Yes,Carton,0,"6"" x 4' 0""",00533_0426V,00533_0426V,00533_0426V,active,0426V,mmllc-images.s3.amazonaws.com/shaw/0426v_00533_main.jpg,7.137 mm,https://shawfloors.com/flooring/how-to/carpet/warranties/warranty-highlights,"5 7/8"""
,Shaw Floors,Shaw Floors,Resilient Residential Classico Plank,Resilient Residential Classico Plank,Colori,00506,mmllc-images.s3.amazonaws.com/shaw/0426v_00506_room.jpg,Float,Loose Lay,48.03 IN,"Kid/Pet Friendly,Eco,Stain Resistant,Wear Resistant",Wear Resistant,Above/On/Below,All Grades,No,Shaw,Shaw Floors Resilient Residential Classico Plank Colori,No,Yes,Carton,0,"6"" x 4' 0""",00506_0426V,00506_0426V,00506_0426V,active,0426V,mmllc-images.s3.amazonaws.com/shaw/0426v_00506_main.jpg,7.137 mm,https://shawfloors.com/flooring/how-to/carpet/warranties/warranty-highlights,"5 7/8"""
,Shaw Floors,Shaw Floors,Resilient Residential Classico Plank,Resilient Residential Classico Plank,Frutta,00609,mmllc-images.s3.amazonaws.com/shaw/0426v_00609_room.jpg,Float,Loose Lay,48.03 IN,"Kid/Pet Friendly,Eco,Stain Resistant,Wear Resistant",Wear Resistant,Above/On/Below,All Grades,No,Shaw,Shaw Floors Resilient Residential Classico Plank Frutta,No,Yes,Carton,0,"6"" x 4' 0""",00609_0426V,00609_0426V,00609_0426V,active,0426V,mmllc-images.s3.amazonaws.com/shaw/0426v_00609_main.jpg,7.137 mm,https://shawfloors.com/flooring/how-to/carpet/warranties/warranty-highlights,"5 7/8"""
,Shaw Floors,Shaw Floors,Resilient Residential Classico Plank,Resilient Residential Classico Plank,Giallo,00643,mmllc-images.s3.amazonaws.com/shaw/0426v_00643_room.jpg,Float,Loose Lay,48.03 IN,"Kid/Pet Friendly,Eco,Stain Resistant,Wear Resistant",Wear Resistant,Above/On/Below,All Grades,No,Shaw,Shaw Floors Resilient Residential Classico Plank Giallo,No,Yes,Carton,0,"6"" x 4' 0""",00643_0426V,00643_0426V,00643_0426V,active,0426V,mmllc-images.s3.amazonaws.com/shaw/0426v_00643_main.jpg,7.137 mm,https://shawfloors.com/flooring/how-to/carpet/warranties/warranty-highlights,"5 7/8"""
,Shaw Floors,Shaw Floors,Resilient Residential Classico Plank,Resilient Residential Classico Plank,Latte,00209,mmllc-images.s3.amazonaws.com/shaw/0426v_00209_room.jpg,Float,Loose Lay,48.03 IN,"Kid/Pet Friendly,Eco,Stain Resistant,Wear Resistant",Wear Resistant,Above/On/Below,All Grades,No,Shaw,Shaw Floors Resilient Residential Classico Plank Latte,No,Yes,Carton,0,"6"" x 4' 0""",00209_0426V,00209_0426V,00209_0426V,active,0426V,mmllc-images.s3.amazonaws.com/shaw/0426v_00209_main.jpg,7.137 mm,https://shawfloors.com/flooring/how-to/carpet/warranties/warranty-highlights,"5 7/8"""
,Shaw Floors,Shaw Floors,Resilient Residential Classico Plank,Resilient Residential Classico Plank,Luce,00128,mmllc-images.s3.amazonaws.com/shaw/0426v_00128_room.jpg,Float,Loose Lay,48.03 IN,"Kid/Pet Friendly,Eco,Stain Resistant,Wear Resistant",Wear Resistant,Above/On/Below,All Grades,No,Shaw,Shaw Floors Resilient Residential Classico Plank Luce,No,Yes,Carton,0,"6"" x 4' 0""",00128_0426V,00128_0426V,00128_0426V,active,0426V,mmllc-images.s3.amazonaws.com/shaw/0426v_00128_main.jpg,7.137 mm,https://shawfloors.com/flooring/how-to/carpet/warranties/warranty-highlights,"5 7/8"""
,Shaw Floors,Shaw Floors,Resilient Residential Classico Plank,Resilient Residential Classico Plank,Marrone,00724,mmllc-images.s3.amazonaws.com/shaw/0426v_00724_room.jpg,Float,Loose Lay,48.03 IN,"Kid/Pet Friendly,Eco,Stain Resistant,Wear Resistant",Wear Resistant,Above/On/Below,All Grades,No,Shaw,Shaw Floors Resilient Residential Classico Plank Marrone,No,Yes,Carton,0,"6"" x 4' 0""",00724_0426V,00724_0426V,00724_0426V,active,0426V,mmllc-images.s3.amazonaws.com/shaw/0426v_00724_main.jpg,7.137 mm,https://shawfloors.com/flooring/how-to/carpet/warranties/warranty-highlights,"5 7/8"""
,Shaw Floors,Shaw Floors,Resilient Residential Classico Plank,Resilient Residential Classico Plank,Molo,00125,mmllc-images.s3.amazonaws.com/shaw/0426v_00125_room.jpg,Float,Loose Lay,48.03 IN,"Kid/Pet Friendly,Eco,Stain Resistant,Wear Resistant",Wear Resistant,Above/On/Below,All Grades,No,Shaw,Shaw Floors Resilient Residential Classico Plank Molo,No,Yes,Carton,0,"6"" x 4' 0""",00125_0426V,00125_0426V,00125_0426V,active,0426V,mmllc-images.s3.amazonaws.com/shaw/0426v_00125_main.jpg,7.137 mm,https://shawfloors.com/flooring/how-to/carpet/warranties/warranty-highlights,"5 7/8"""
,Shaw Floors,Shaw Floors,Resilient Residential Classico Plank,Resilient Residential Classico Plank,Oro,00255,mmllc-images.s3.amazonaws.com/shaw/0426v_00255_room.jpg,Float,Loose Lay,48.03 IN,"Kid/Pet Friendly,Eco,Stain Resistant,Wear Resistant",Wear Resistant,Above/On/Below,All Grades,No,Shaw,Shaw Floors Resilient Residential Classico Plank Oro,No,Yes,Carton,0,"6"" x 4' 0""",00255_0426V,00255_0426V,00255_0426V,active,0426V,mmllc-images.s3.amazonaws.com/shaw/0426v_00255_main.jpg,7.137 mm,https://shawfloors.com/flooring/how-to/carpet/warranties/warranty-highlights,"5 7/8"""
,Shaw Floors,Shaw Floors,Resilient Residential Classico Plank,Resilient Residential Classico Plank,Pera,00526,mmllc-images.s3.amazonaws.com/shaw/0426v_00526_room.jpg,Float,Loose Lay,48.03 IN,"Kid/Pet Friendly,Eco,Stain Resistant,Wear Resistant",Wear Resistant,Above/On/Below,All Grades,No,Shaw,Shaw Floors Resilient Residential Classico Plank Pera,No,Yes,Carton,0,"6"" x 4' 0""",00526_0426V,00526_0426V,00526_0426V,active,0426V,mmllc-images.s3.amazonaws.com/shaw/0426v_00526_main.jpg,7.137 mm,https://shawfloors.com/flooring/how-to/carpet/warranties/warranty-highlights,"5 7/8"""
,Shaw Floors,Shaw Floors,Resilient Residential Classico Plank,Resilient Residential Classico Plank,Rosso,00710,mmllc-images.s3.amazonaws.com/shaw/0426v_00710_room.jpg,Float,Loose Lay,48.03 IN,"Kid/Pet Friendly,Eco,Stain Resistant,Wear Resistant",Wear Resistant,Above/On/Below,All Grades,No,Shaw,Shaw Floors Resilient Residential Classico Plank Rosso,No,Yes,Carton,0,"6"" x 4' 0""",00710_0426V,00710_0426V,00710_0426V,active,0426V,mmllc-images.s3.amazonaws.com/shaw/0426v_00710_main.jpg,7.137 mm,https://shawfloors.com/flooring/how-to/carpet/warranties/warranty-highlights,"5 7/8"""
,Shaw Floors,Shaw Floors,Resilient Residential Classico Plank,Resilient Residential Classico Plank,Teak,00603,mmllc-images.s3.amazonaws.com/shaw/0426v_00603_room.jpg,Float,Loose Lay,48.03 IN,"Kid/Pet Friendly,Eco,Stain Resistant,Wear Resistant",Wear Resistant,Above/On/Below,All Grades,No,Shaw,Shaw Floors Resilient Residential Classico Plank Teak,No,Yes,Carton,0,"6"" x 4' 0""",00603_0426V,00603_0426V,00603_0426V,active,0426V,mmllc-images.s3.amazonaws.com/shaw/0426v_00603_main.jpg,7.137 mm,https://shawfloors.com/flooring/how-to/carpet/warranties/warranty-highlights,"5 7/8"""
Commercial,Philadelphia Commercial,Philadelphia Commercial,Resilient Residential Transcend,Resilient Residential Transcend,Alpaca,00556,mmllc-images.s3.amazonaws.com/shaw/5529v_00556_room.jpg,Direct Glue,Glue Down / Adhesive,48.03 IN,"Kid/Pet Friendly,Eco,Stain Resistant,Wear Resistant",Wear Resistant,Above/On/Below,All Grades,No,Shaw,Philadelphia Commercial Resilient Residential Transcend Alpaca,No,Yes,Carton,0,"7"" x 4' 0""",00556_5529V,00556_5529V,00556_5529V,active,5529V,mmllc-images.s3.amazonaws.com/shaw/5529v_00556_main.jpg,2.769 mm,https://shawfloors.com/flooring/how-to/carpet/warranties/warranty-highlights,"7"""
Commercial,Philadelphia Commercial,Philadelphia Commercial,Resilient Residential Transcend,Resilient Residential Transcend,Cityscape,00591,mmllc-images.s3.amazonaws.com/shaw/5529v_00591_room.jpg,Direct Glue,Glue Down / Adhesive,48.03 IN,"Kid/Pet Friendly,Eco,Stain Resistant,Wear Resistant",Wear Resistant,Above/On/Below,All Grades,No,Shaw,Philadelphia Commercial Resilient Residential Transcend Cityscape,No,Yes,Carton,0,"7"" x 4' 0""",00591_5529V,00591_5529V,00591_5529V,active,5529V,mmllc-images.s3.amazonaws.com/shaw/5529v_00591_main.jpg,2.769 mm,https://shawfloors.com/flooring/how-to/carpet/warranties/warranty-highlights,"7"""
Commercial,Philadelphia Commercial,Philadelphia Commercial,Resilient Residential Transcend,Resilient Residential Transcend,Coconut Husk,00452,mmllc-images.s3.amazonaws.com/shaw/5529v_00452_room.jpg,Direct Glue,Glue Down / Adhesive,48.03 IN,"Kid/Pet Friendly,Eco,Stain Resistant,Wear Resistant",Wear Resistant,Above/On/Below,All Grades,No,Shaw,Philadelphia Commercial Resilient Residential Transcend Coconut Husk,No,Yes,Carton,0,"7"" x 4' 0""",00452_5529V,00452_5529V,00452_5529V,active,5529V,mmllc-images.s3.amazonaws.com/shaw/5529v_00452_main.jpg,2.769 mm,https://shawfloors.com/flooring/how-to/carpet/warranties/warranty-highlights,"7"""
Commercial,Philadelphia Commercial,Philadelphia Commercial,Resilient Residential Transcend,Resilient Residential Transcend,Colonial,00698,mmllc-images.s3.amazonaws.com/shaw/5529v_00698_room.jpg,Direct Glue,Glue Down / Adhesive,48.03 IN,"Kid/Pet Friendly,Eco,Stain Resistant,Wear Resistant",Wear Resistant,Above/On/Below,All Grades,No,Shaw,Philadelphia Commercial Resilient Residential Transcend Colonial,No,Yes,Carton,0,"7"" x 4' 0""",00698_5529V,00698_5529V,00698_5529V,active,5529V,mmllc-images.s3.amazonaws.com/shaw/5529v_00698_main.jpg,2.769 mm,https://shawfloors.com/flooring/how-to/carpet/warranties/warranty-highlights,"7"""
Commercial,Philadelphia Commercial,Philadelphia Commercial,Resilient Residential Transcend,Resilient Residential Transcend,Dorian Gray,00138,mmllc-images.s3.amazonaws.com/shaw/5529v_00138_room.jpg,Direct Glue,Glue Down / Adhesive,48.03 IN,"Kid/Pet Friendly,Eco,Stain Resistant,Wear Resistant",Wear Resistant,Above/On/Below,All Grades,No,Shaw,Philadelphia Commercial Resilient Residential Transcend Dorian Gray,No,Yes,Carton,0,"7"" x 4' 0""",00138_5529V,00138_5529V,00138_5529V,active,5529V,mmllc-images.s3.amazonaws.com/shaw/5529v_00138_main.jpg,2.769 mm,https://shawfloors.com/flooring/how-to/carpet/warranties/warranty-highlights,"7"""
Commercial,Philadelphia Commercial,Philadelphia Commercial,Resilient Residential Transcend,Resilient Residential Transcend,Dovetail,00592,mmllc-images.s3.amazonaws.com/shaw/5529v_00592_room.jpg,Direct Glue,Glue Down / Adhesive,48.03 IN,"Kid/Pet Friendly,Eco,Stain Resistant,Wear Resistant",Wear Resistant,Above/On/Below,All Grades,No,Shaw,Philadelphia Commercial Resilient Residential Transcend Dovetail,No,Yes,Carton,0,"7"" x 4' 0""",00592_5529V,00592_5529V,00592_5529V,active,5529V,mmllc-images.s3.amazonaws.com/shaw/5529v_00592_main.jpg,2.769 mm,https://shawfloors.com/flooring/how-to/carpet/warranties/warranty-highlights,"7"""
Commercial,Philadelphia Commercial,Philadelphia Commercial,Resilient Residential Transcend,Resilient Residential Transcend,Functional Gray,00142,mmllc-images.s3.amazonaws.com/shaw/5529v_00142_room.jpg,Direct Glue,Glue Down / Adhesive,48.03 IN,"Kid/Pet Friendly,Eco,Stain Resistant,Wear Resistant",Wear Resistant,Above/On/Below,All Grades,No,Shaw,Philadelphia Commercial Resilient Residential Transcend Functional Gray,No,Yes,Carton,0,"7"" x 4' 0""",00142_5529V,00142_5529V,00142_5529V,active,5529V,mmllc-images.s3.amazonaws.com/shaw/5529v_00142_main.jpg,2.769 mm,https://shawfloors.com/flooring/how-to/carpet/warranties/warranty-highlights,"7"""
Commercial,Philadelphia Commercial,Philadelphia Commercial,Resilient Residential Transcend,Resilient Residential Transcend,Grizzle Gray,00562,mmllc-images.s3.amazonaws.com/shaw/5529v_00562_room.jpg,Direct Glue,Glue Down / Adhesive,48.03 IN,"Kid/Pet Friendly,Eco,Stain Resistant,Wear Resistant",Wear Resistant,Above/On/Below,All Grades,No,Shaw,Philadelphia Commercial Resilient Residential Transcend Grizzle Gray,No,Yes,Carton,0,"7"" x 4' 0""",00562_5529V,00562_5529V,00562_5529V,active,5529V,mmllc-images.s3.amazonaws.com/shaw/5529v_00562_main.jpg,2.769 mm,https://shawfloors.com/flooring/how-to/carpet/warranties/warranty-highlights,"7"""
Commercial,Philadelphia Commercial,Philadelphia Commercial,Resilient Residential Transcend,Resilient Residential Transcend,Hopsack,00154,mmllc-images.s3.amazonaws.com/shaw/5529v_00154_room.jpg,Direct Glue,Glue Down / Adhesive,48.03 IN,"Kid/Pet Friendly,Eco,Stain Resistant,Wear Resistant",Wear Resistant,Above/On/Below,All Grades,No,Shaw,Philadelphia Commercial Resilient Residential Transcend Hopsack,No,Yes,Carton,0,"7"" x 4' 0""",00154_5529V,00154_5529V,00154_5529V,active,5529V,mmllc-images.s3.amazonaws.com/shaw/5529v_00154_main.jpg,2.769 mm,https://shawfloors.com/flooring/how-to/carpet/warranties/warranty-highlights,"7"""
Commercial,Philadelphia Commercial,Philadelphia Commercial,Resilient Residential Transcend,Resilient Residential Transcend,Kilim Beige,00507,mmllc-images.s3.amazonaws.com/shaw/5529v_00507_room.jpg,Direct Glue,Glue Down / Adhesive,48.03 IN,"Kid/Pet Friendly,Eco,Stain Resistant,Wear Resistant",Wear Resistant,Above/On/Below,All Grades,No,Shaw,Philadelphia Commercial Resilient Residential Transcend Kilim Beige,No,Yes,Carton,0,"7"" x 4' 0""",00507_5529V,00507_5529V,00507_5529V,active,5529V,mmllc-images.s3.amazonaws.com/shaw/5529v_00507_main.jpg,2.769 mm,https://shawfloors.com/flooring/how-to/carpet/warranties/warranty-highlights,"7"""
Commercial,Philadelphia Commercial,Philadelphia Commercial,Resilient Residential Transcend,Resilient Residential Transcend,Leather Bond,00820,mmllc-images.s3.amazonaws.com/shaw/5529v_00820_room.jpg,Direct Glue,Glue Down / Adhesive,48.03 IN,"Kid/Pet Friendly,Eco,Stain Resistant,Wear Resistant",Wear Resistant,Above/On/Below,All Grades,No,Shaw,Philadelphia Commercial Resilient Residential Transcend Leather Bond,No,Yes,Carton,0,"7"" x 4' 0""",00820_5529V,00820_5529V,00820_5529V,active,5529V,mmllc-images.s3.amazonaws.com/shaw/5529v_00820_main.jpg,2.769 mm,https://shawfloors.com/flooring/how-to/carpet/warranties/warranty-highlights,"7"""
Commercial,Philadelphia Commercial,Philadelphia Commercial,Resilient Residential Transcend,Resilient Residential Transcend,Night Owl,00762,mmllc-images.s3.amazonaws.com/shaw/5529v_00762_room.jpg,Direct Glue,Glue Down / Adhesive,48.03 IN,"Kid/Pet Friendly,Eco,Stain Resistant,Wear Resistant",Wear Resistant,Above/On/Below,All Grades,No,Shaw,Philadelphia Commercial Resilient Residential Transcend Night Owl,No,Yes,Carton,0,"7"" x 4' 0""",00762_5529V,00762_5529V,00762_5529V,active,5529V,mmllc-images.s3.amazonaws.com/shaw/5529v_00762_main.jpg,2.769 mm,https://shawfloors.com/flooring/how-to/carpet/warranties/warranty-highlights,"7"""
Commercial,Philadelphia Commercial,Philadelphia Commercial,Resilient Residential Transcend,Resilient Residential Transcend,Portabello,00765,mmllc-images.s3.amazonaws.com/shaw/5529v_00765_room.jpg,Direct Glue,Glue Down / Adhesive,48.03 IN,"Kid/Pet Friendly,Eco,Stain Resistant,Wear Resistant",Wear Resistant,Above/On/Below,All Grades,No,Shaw,Philadelphia Commercial Resilient Residential Transcend Portabello,No,Yes,Carton,0,"7"" x 4' 0""",00765_5529V,00765_5529V,00765_5529V,active,5529V,mmllc-images.s3.amazonaws.com/shaw/5529v_00765_main.jpg,2.769 mm,https://shawfloors.com/flooring/how-to/carpet/warranties/warranty-highlights,"7"""
Commercial,Philadelphia Commercial,Philadelphia Commercial,Resilient Residential Transcend,Resilient Residential Transcend,Ramie,00203,mmllc-images.s3.amazonaws.com/shaw/5529v_00203_room.jpg,Direct Glue,Glue Down / Adhesive,48.03 IN,"Kid/Pet Friendly,Eco,Stain Resistant,Wear Resistant",Wear Resistant,Above/On/Below,All Grades,No,Shaw,Philadelphia Commercial Resilient Residential Transcend Ramie,No,Yes,Carton,0,"7"" x 4' 0""",00203_5529V,00203_5529V,00203_5529V,active,5529V,mmllc-images.s3.amazonaws.com/shaw/5529v_00203_main.jpg,2.769 mm,https://shawfloors.com/flooring/how-to/carpet/warranties/warranty-highlights,"7"""
Commercial,Philadelphia Commercial,Philadelphia Commercial,Resilient Residential Transcend,Resilient Residential Transcend,Repose Gray,00117,mmllc-images.s3.amazonaws.com/shaw/5529v_00117_room.jpg,Direct Glue,Glue Down / Adhesive,48.03 IN,"Kid/Pet Friendly,Eco,Stain Resistant,Wear Resistant",Wear Resistant,Above/On/Below,All Grades,No,Shaw,Philadelphia Commercial Resilient Residential Transcend Repose Gray,No,Yes,Carton,0,"7"" x 4' 0""",00117_5529V,00117_5529V,00117_5529V,active,5529V,mmllc-images.s3.amazonaws.com/shaw/5529v_00117_main.jpg,2.769 mm,https://shawfloors.com/flooring/how-to/carpet/warranties/warranty-highlights,"7"""
Commercial,Philadelphia Commercial,Philadelphia Commercial,Resilient Residential Transcend,Resilient Residential Transcend,Rookwood,00802,mmllc-images.s3.amazonaws.com/shaw/5529v_00802_room.jpg,Direct Glue,Glue Down / Adhesive,48.03 IN,"Kid/Pet Friendly,Eco,Stain Resistant,Wear Resistant",Wear Resistant,Above/On/Below,All Grades,No,Shaw,Philadelphia Commercial Resilient Residential Transcend Rookwood,No,Yes,Carton,0,"7"" x 4' 0""",00802_5529V,00802_5529V,00802_5529V,active,5529V,mmllc-images.s3.amazonaws.com/shaw/5529v_00802_main.jpg,2.769 mm,https://shawfloors.com/flooring/how-to/carpet/warranties/warranty-highlights,"7"""
Commercial,Philadelphia Commercial,Philadelphia Commercial,Resilient Residential Transcend,Resilient Residential Transcend,Sawdust,00150,mmllc-images.s3.amazonaws.com/shaw/5529v_00150_room.jpg,Direct Glue,Glue Down / Adhesive,48.03 IN,"Kid/Pet Friendly,Eco,Stain Resistant,Wear Resistant",Wear Resistant,Above/On/Below,All Grades,No,Shaw,Philadelphia Commercial Resilient Residential Transcend Sawdust,No,Yes,Carton,0,"7"" x 4' 0""",00150_5529V,00150_5529V,00150_5529V,active,5529V,mmllc-images.s3.amazonaws.com/shaw/5529v_00150_main.jpg,2.769 mm,https://shawfloors.com/flooring/how-to/carpet/warranties/warranty-highlights,"7"""
Commercial,Philadelphia Commercial,Philadelphia Commercial,Resilient Residential Transcend,Resilient Residential Transcend,Smokehouse,00728,mmllc-images.s3.amazonaws.com/shaw/5529v_00728_room.jpg,Direct Glue,Glue Down / Adhesive,48.03 IN,"Kid/Pet Friendly,Eco,Stain Resistant,Wear Resistant",Wear Resistant,Above/On/Below,All Grades,No,Shaw,Philadelphia Commercial Resilient Residential Transcend Smokehouse,No,Yes,Carton,0,"7"" x 4' 0""",00728_5529V,00728_5529V,00728_5529V,active,5529V,mmllc-images.s3.amazonaws.com/shaw/5529v_00728_main.jpg,2.769 mm,https://shawfloors.com/flooring/how-to/carpet/warranties/warranty-highlights,"7"""
Commercial,Philadelphia Commercial,Philadelphia Commercial,Resilient Residential Transcend,Resilient Residential Transcend,Sycamore,00734,mmllc-images.s3.amazonaws.com/shaw/5529v_00734_room.jpg,Direct Glue,Glue Down / Adhesive,48.03 IN,"Kid/Pet Friendly,Eco,Stain Resistant,Wear Resistant",Wear Resistant,Above/On/Below,All Grades,No,Shaw,Philadelphia Commercial Resilient Residential Transcend Sycamore,No,Yes,Carton,0,"7"" x 4' 0""",00734_5529V,00734_5529V,00734_5529V,active,5529V,mmllc-images.s3.amazonaws.com/shaw/5529v_00734_main.jpg,2.769 mm,https://shawfloors.com/flooring/how-to/carpet/warranties/warranty-highlights,"7"""
Commercial,Philadelphia Commercial,Philadelphia Commercial,Resilient Residential Transcend,Resilient Residential Transcend,Well-bred Brown,00634,mmllc-images.s3.amazonaws.com/shaw/00634_5529V_20130122_DININGROOM_1.jpg|mmllc-images.s3.amazonaws.com/shaw/00634_5529V_20130408_LIVINGROOM_2_SQUARE.jpg|mmllc-images.s3.amazonaws.com/shaw/00634_5529V_20130408_LIVINGROOM_3_SQUARE.jpg|mmllc-images.s3.amazonaws.com/shaw/00634_5529V_20130523_BEDROOM_2_SQUARE.jpg|mmllc-images.s3.amazonaws.com/shaw/00634_5529V_20141218_BEDROOM_1_SQUARE.jpg|mmllc-images.s3.amazonaws.com/shaw/00634_5529V_20141218_BEDROOM_4_SQUARE.jpg|mmllc-images.s3.amazonaws.com/shaw/00634_5529V_20141218_KITCHEN_2_SQUARE.jpg|mmllc-images.s3.amazonaws.com/shaw/00634_5529V_20141231_LIVINGROOM_2_SQUARE.jpg|mmllc-images.s3.amazonaws.com/shaw/00634_5529V_20150128_BEDROOM_2_SQUARE.jpg|mmllc-images.s3.amazonaws.com/shaw/00634_5529V_20150128_LIVINGROOM_4_SQUARE.jpg|mmllc-images.s3.amazonaws.com/shaw/00634_5529V_20150128_LIVINGROOM_6_SQUARE.jpg|mmllc-images.s3.amazonaws.com/shaw/00634_5529V_20150128_LIVINGROOM_7_SQUARE.jpg|mmllc-images.s3.amazonaws.com/shaw/00634_5529V_20160222_LIVINGROOM_1_SQUARE.jpg|mmllc-images.s3.amazonaws.com/shaw/00634_5529V_20160222_LIVINGROOM_2_SQUARE.jpg|mmllc-images.s3.amazonaws.com/shaw/00634_5529V_20160222_LIVINGROOM_3_SQUARE.jpg,Direct Glue,Glue Down / Adhesive,48.03 IN,"Kid/Pet Friendly,Eco,Stain Resistant,Wear Resistant",Wear Resistant,Above/On/Below,All Grades,No,Shaw,Philadelphia Commercial Resilient Residential Transcend Well-bred Brown,No,Yes,Carton,0,"7"" x 4' 0""",00634_5529V,00634_5529V,00634_5529V,active,5529V,mmllc-images.s3.amazonaws.com/shaw/5529v_00634_main.jpg,2.769 mm,https://shawfloors.com/flooring/how-to/carpet/warranties/warranty-highlights,"7"""
,Shaw Floors,Shaw Floors,Resilient Residential Premio Plank,Resilient Residential Premio Plank,Cortona,00575,mmllc-images.s3.amazonaws.com/shaw/0490v_00575_room.jpg,Float,Loose Lay,48.03 IN,"Kid/Pet Friendly,Eco,Stain Resistant,Wear Resistant",Wear Resistant,Above/On/Below,All Grades,No,Shaw,Shaw Floors Resilient Residential Premio Plank Cortona,No,Yes,Carton,0,"6"" x 4' 0""",00575_0490V,00575_0490V,00575_0490V,active,0490V,mmllc-images.s3.amazonaws.com/shaw/0490v_00575_main.jpg,6.35 mm,https://shawfloors.com/flooring/how-to/carpet/warranties/warranty-highlights,"5 7/8"""
Commercial,Philadelphia Commercial,Philadelphia Commercial,In The Grainii12,In The Grainii12,Amaranth,00769,mmllc-images.s3.amazonaws.com/shaw/5524v_00769_room.jpg,Glue,Glue Down / Adhesive,48 IN,"Kid/Pet Friendly,Eco,Stain Resistant,Wear Resistant",Wear Resistant,Above/On/Below,All Grades,No,Shaw,Philadelphia Commercial In The Grainii12 Amaranth,No,Yes,Carton,0,"6"" x 4'",00769_5524V,00769_5524V,00769_5524V,active,5524V,mmllc-images.s3.amazonaws.com/shaw/5524v_00769_main.jpg,2.388 mm,https://shawfloors.com/flooring/how-to/carpet/warranties/warranty-highlights,"6"""
Commercial,Philadelphia Commercial,Philadelphia Commercial,In The Grainii12,In The Grainii12,Barley,00740,mmllc-images.s3.amazonaws.com/shaw/5524v_00740_room.jpg,Glue,Glue Down / Adhesive,48 IN,"Kid/Pet Friendly,Eco,Stain Resistant,Wear Resistant",Wear Resistant,Above/On/Below,All Grades,No,Shaw,Philadelphia Commercial In The Grainii12 Barley,No,Yes,Carton,0,"6"" x 4'",00740_5524V,00740_5524V,00740_5524V,active,5524V,mmllc-images.s3.amazonaws.com/shaw/5524v_00740_main.jpg,2.388 mm,https://shawfloors.com/flooring/how-to/carpet/warranties/warranty-highlights,"6"""
Commercial,Philadelphia Commercial,Philadelphia Commercial,In The Grainii12,In The Grainii12,Briarwood,05019,mmllc-images.s3.amazonaws.com/shaw/5524v_05019_room.jpg,Glue,Glue Down / Adhesive,48 IN,"Kid/Pet Friendly,Eco,Stain Resistant,Wear Resistant",Wear Resistant,Above/On/Below,All Grades,No,Shaw,Philadelphia Commercial In The Grainii12 Briarwood,No,Yes,Carton,0,"6"" x 4'",05019_5524V,05019_5524V,05019_5524V,active,5524V,mmllc-images.s3.amazonaws.com/shaw/5524v_05019_main.jpg,2.388 mm,https://shawfloors.com/flooring/how-to/carpet/warranties/warranty-highlights,"6"""
Commercial,Philadelphia Commercial,Philadelphia Commercial,In The Grainii12,In The Grainii12,Burlwood,07008,mmllc-images.s3.amazonaws.com/shaw/5524v_07008_room.jpg,Glue,Glue Down / Adhesive,48 IN,"Kid/Pet Friendly,Eco,Stain Resistant,Wear Resistant",Wear Resistant,Above/On/Below,All Grades,No,Shaw,Philadelphia Commercial In The Grainii12 Burlwood,No,Yes,Carton,0,"6"" x 4'",07008_5524V,07008_5524V,07008_5524V,active,5524V,mmllc-images.s3.amazonaws.com/shaw/5524v_07008_main.jpg,2.388 mm,https://shawfloors.com/flooring/how-to/carpet/warranties/warranty-highlights,"6"""
Commercial,Philadelphia Commercial,Philadelphia Commercial,In The Grainii12,In The Grainii12,Cotton Seed,07004,mmllc-images.s3.amazonaws.com/shaw/5524v_07004_room.jpg,Glue,Glue Down / Adhesive,48 IN,"Kid/Pet Friendly,Eco,Stain Resistant,Wear Resistant",Wear Resistant,Above/On/Below,All Grades,No,Shaw,Philadelphia Commercial In The Grainii12 Cotton Seed,No,Yes,Carton,0,"6"" x 4'",07004_5524V,07004_5524V,07004_5524V,active,5524V,mmllc-images.s3.amazonaws.com/shaw/5524v_07004_main.jpg,2.388 mm,https://shawfloors.com/flooring/how-to/carpet/warranties/warranty-highlights,"6"""
Commercial,Philadelphia Commercial,Philadelphia Commercial,In The Grainii12,In The Grainii12,Drift,05013,mmllc-images.s3.amazonaws.com/shaw/5524v_05013_room.jpg,Glue,Glue Down / Adhesive,48 IN,"Kid/Pet Friendly,Eco,Stain Resistant,Wear Resistant",Wear Resistant,Above/On/Below,All Grades,No,Shaw,Philadelphia Commercial In The Grainii12 Drift,No,Yes,Carton,0,"6"" x 4'",05013_5524V,05013_5524V,05013_5524V,active,5524V,mmllc-images.s3.amazonaws.com/shaw/5524v_05013_main.jpg,2.388 mm,https://shawfloors.com/flooring/how-to/carpet/warranties/warranty-highlights,"6"""
Commercial,Philadelphia Commercial,Philadelphia Commercial,In The Grainii12,In The Grainii12,Farro,00684,mmllc-images.s3.amazonaws.com/shaw/5524v_00684_room.jpg,Glue,Glue Down / Adhesive,48 IN,"Kid/Pet Friendly,Eco,Stain Resistant,Wear Resistant",Wear Resistant,Above/On/Below,All Grades,No,Shaw,Philadelphia Commercial In The Grainii12 Farro,No,Yes,Carton,0,"6"" x 4'",00684_5524V,00684_5524V,00684_5524V,active,5524V,mmllc-images.s3.amazonaws.com/shaw/5524v_00684_main.jpg,2.388 mm,https://shawfloors.com/flooring/how-to/carpet/warranties/warranty-highlights,"6"""
Commercial,Philadelphia Commercial,Philadelphia Commercial,In The Grainii12,In The Grainii12,Fir,00174,mmllc-images.s3.amazonaws.com/shaw/5524v_00174_room.jpg,Glue,Glue Down / Adhesive,48 IN,"Kid/Pet Friendly,Eco,Stain Resistant,Wear Resistant",Wear Resistant,Above/On/Below,All Grades,No,Shaw,Philadelphia Commercial In The Grainii12 Fir,No,Yes,Carton,0,"6"" x 4'",00174_5524V,00174_5524V,00174_5524V,active,5524V,mmllc-images.s3.amazonaws.com/shaw/5524v_00174_main.jpg,2.388 mm,https://shawfloors.com/flooring/how-to/carpet/warranties/warranty-highlights,"6"""
Commercial,Philadelphia Commercial,Philadelphia Commercial,In The Grainii12,In The Grainii12,Flaxseed,00568,mmllc-images.s3.amazonaws.com/shaw/5524v_00568_room.jpg,Glue,Glue Down / Adhesive,48 IN,"Kid/Pet Friendly,Eco,Stain Resistant,Wear Resistant",Wear Resistant,Above/On/Below,All Grades,No,Shaw,Philadelphia Commercial In The Grainii12 Flaxseed,No,Yes,Carton,0,"6"" x 4'",00568_5524V,00568_5524V,00568_5524V,active,5524V,mmllc-images.s3.amazonaws.com/shaw/5524v_00568_main.jpg,2.388 mm,https://shawfloors.com/flooring/how-to/carpet/warranties/warranty-highlights,"6"""
Commercial,Philadelphia Commercial,Philadelphia Commercial,In The Grainii12,In The Grainii12,Freekeh,00564,mmllc-images.s3.amazonaws.com/shaw/5524v_00564_room.jpg,Glue,Glue Down / Adhesive,48 IN,"Kid/Pet Friendly,Eco,Stain Resistant,Wear Resistant",Wear Resistant,Above/On/Below,All Grades,No,Shaw,Philadelphia Commercial In The Grainii12 Freekeh,No,Yes,Carton,0,"6"" x 4'",00564_5524V,00564_5524V,00564_5524V,active,5524V,mmllc-images.s3.amazonaws.com/shaw/5524v_00564_main.jpg,2.388 mm,https://shawfloors.com/flooring/how-to/carpet/warranties/warranty-highlights,"6"""
Commercial,Philadelphia Commercial,Philadelphia Commercial,In The Grainii12,In The Grainii12,Frosted Oats,00559,mmllc-images.s3.amazonaws.com/shaw/5524v_00559_room.jpg,Glue,Glue Down / Adhesive,48 IN,"Kid/Pet Friendly,Eco,Stain Resistant,Wear Resistant",Wear Resistant,Above/On/Below,All Grades,No,Shaw,Philadelphia Commercial In The Grainii12 Frosted Oats,No,Yes,Carton,0,"6"" x 4'",00559_5524V,00559_5524V,00559_5524V,active,5524V,mmllc-images.s3.amazonaws.com/shaw/5524v_00559_main.jpg,2.388 mm,https://shawfloors.com/flooring/how-to/carpet/warranties/warranty-highlights,"6"""
Commercial,Philadelphia Commercial,Philadelphia Commercial,In The Grainii12,In The Grainii12,Hemp,00216,mmllc-images.s3.amazonaws.com/shaw/5524v_00216_room.jpg,Glue,Glue Down / Adhesive,48 IN,"Kid/Pet Friendly,Eco,Stain Resistant,Wear Resistant",Wear Resistant,Above/On/Below,All Grades,No,Shaw,Philadelphia Commercial In The Grainii12 Hemp,No,Yes,Carton,0,"6"" x 4'",00216_5524V,00216_5524V,00216_5524V,active,5524V,mmllc-images.s3.amazonaws.com/shaw/5524v_00216_main.jpg,2.388 mm,https://shawfloors.com/flooring/how-to/carpet/warranties/warranty-highlights,"6"""
Commercial,Philadelphia Commercial,Philadelphia Commercial,In The Grainii12,In The Grainii12,Millet,00256,mmllc-images.s3.amazonaws.com/shaw/5524v_00256_room.jpg,Glue,Glue Down / Adhesive,48 IN,"Kid/Pet Friendly,Eco,Stain Resistant,Wear Resistant",Wear Resistant,Above/On/Below,All Grades,No,Shaw,Philadelphia Commercial In The Grainii12 Millet,No,Yes,Carton,0,"6"" x 4'",00256_5524V,00256_5524V,00256_5524V,active,5524V,mmllc-images.s3.amazonaws.com/shaw/5524v_00256_main.jpg,2.388 mm,https://shawfloors.com/flooring/how-to/carpet/warranties/warranty-highlights,"6"""
Commercial,Philadelphia Commercial,Philadelphia Commercial,In The Grainii12,In The Grainii12,Milo,00572,mmllc-images.s3.amazonaws.com/shaw/5524v_00572_room.jpg,Glue,Glue Down / Adhesive,48 IN,"Kid/Pet Friendly,Eco,Stain Resistant,Wear Resistant",Wear Resistant,Above/On/Below,All Grades,No,Shaw,Philadelphia Commercial In The Grainii12 Milo,No,Yes,Carton,0,"6"" x 4'",00572_5524V,00572_5524V,00572_5524V,active,5524V,mmllc-images.s3.amazonaws.com/shaw/5524v_00572_main.jpg,2.388 mm,https://shawfloors.com/flooring/how-to/carpet/warranties/warranty-highlights,"6"""
Commercial,Philadelphia Commercial,Philadelphia Commercial,In The Grainii12,In The Grainii12,Nutshell,00173,mmllc-images.s3.amazonaws.com/shaw/5524v_00173_room.jpg,Glue,Glue Down / Adhesive,48 IN,"Kid/Pet Friendly,Eco,Stain Resistant,Wear Resistant",Wear Resistant,Above/On/Below,All Grades,No,Shaw,Philadelphia Commercial In The Grainii12 Nutshell,No,Yes,Carton,0,"6"" x 4'",00173_5524V,00173_5524V,00173_5524V,active,5524V,mmllc-images.s3.amazonaws.com/shaw/5524v_00173_main.jpg,2.388 mm,https://shawfloors.com/flooring/how-to/carpet/warranties/warranty-highlights,"6"""
Commercial,Philadelphia Commercial,Philadelphia Commercial,In The Grainii12,In The Grainii12,Oakwood,07007,mmllc-images.s3.amazonaws.com/shaw/5524v_07007_room.jpg,Glue,Glue Down / Adhesive,48 IN,"Kid/Pet Friendly,Eco,Stain Resistant,Wear Resistant",Wear Resistant,Above/On/Below,All Grades,No,Shaw,Philadelphia Commercial In The Grainii12 Oakwood,No,Yes,Carton,0,"6"" x 4'",07007_5524V,07007_5524V,07007_5524V,active,5524V,mmllc-images.s3.amazonaws.com/shaw/5524v_07007_main.jpg,2.388 mm,https://shawfloors.com/flooring/how-to/carpet/warranties/warranty-highlights,"6"""
Commercial,Philadelphia Commercial,Philadelphia Commercial,In The Grainii12,In The Grainii12,Rye,00116,mmllc-images.s3.amazonaws.com/shaw/5524v_00116_room.jpg,Glue,Glue Down / Adhesive,48 IN,"Kid/Pet Friendly,Eco,Stain Resistant,Wear Resistant",Wear Resistant,Above/On/Below,All Grades,No,Shaw,Philadelphia Commercial In The Grainii12 Rye,No,Yes,Carton,0,"6"" x 4'",00116_5524V,00116_5524V,00116_5524V,active,5524V,mmllc-images.s3.amazonaws.com/shaw/5524v_00116_main.jpg,2.388 mm,https://shawfloors.com/flooring/how-to/carpet/warranties/warranty-highlights,"6"""
Commercial,Philadelphia Commercial,Philadelphia Commercial,In The Grainii12,In The Grainii12,Sandalwood,07003,mmllc-images.s3.amazonaws.com/shaw/5524v_07003_room.jpg,Glue,Glue Down / Adhesive,48 IN,"Kid/Pet Friendly,Eco,Stain Resistant,Wear Resistant",Wear Resistant,Above/On/Below,All Grades,No,Shaw,Philadelphia Commercial In The Grainii12 Sandalwood,No,Yes,Carton,0,"6"" x 4'",07003_5524V,07003_5524V,07003_5524V,active,5524V,mmllc-images.s3.amazonaws.com/shaw/5524v_07003_main.jpg,2.388 mm,https://shawfloors.com/flooring/how-to/carpet/warranties/warranty-highlights,"6"""
Commercial,Philadelphia Commercial,Philadelphia Commercial,In The Grainii12,In The Grainii12,Spelt,00775,mmllc-images.s3.amazonaws.com/shaw/5524v_00775_room.jpg,Glue,Glue Down / Adhesive,48 IN,"Kid/Pet Friendly,Eco,Stain Resistant,Wear Resistant",Wear Resistant,Above/On/Below,All Grades,No,Shaw,Philadelphia Commercial In The Grainii12 Spelt,No,Yes,Carton,0,"6"" x 4'",00775_5524V,00775_5524V,00775_5524V,active,5524V,mmllc-images.s3.amazonaws.com/shaw/5524v_00775_main.jpg,2.388 mm,https://shawfloors.com/flooring/how-to/carpet/warranties/warranty-highlights,"6"""
Commercial,Philadelphia Commercial,Philadelphia Commercial,In The Grainii12,In The Grainii12,Wheat,00774,mmllc-images.s3.amazonaws.com/shaw/5524v_00774_room.jpg,Glue,Glue Down / Adhesive,48 IN,"Kid/Pet Friendly,Eco,Stain Resistant,Wear Resistant",Wear Resistant,Above/On/Below,All Grades,No,Shaw,Philadelphia Commercial In The Grainii12 Wheat,No,Yes,Carton,0,"6"" x 4'",00774_5524V,00774_5524V,00774_5524V,active,5524V,mmllc-images.s3.amazonaws.com/shaw/5524v_00774_main.jpg,2.388 mm,https://shawfloors.com/flooring/how-to/carpet/warranties/warranty-highlights,"6"""
Commercial,Philadelphia Commercial,Philadelphia Commercial,Resilient Commercial In The Grain II 20,Resilient Commercial In The Grain II 20,Amaranth,00769,mmllc-images.s3.amazonaws.com/shaw/5525v_00769_room.jpg,Direct Glue,Glue Down / Adhesive,48 IN,"Kid/Pet Friendly,Eco,Stain Resistant,Wear Resistant",Wear Resistant,Above/On/Below,All Grades,No,Shaw,Philadelphia Commercial Resilient Commercial In The Grain II 20 Amaranth,No,Yes,Carton,0,"6"" x 4'",00769_5525V,00769_5525V,00769_5525V,active,5525V,mmllc-images.s3.amazonaws.com/shaw/5525v_00769_main.jpg,2.388 mm,https://shawfloors.com/flooring/how-to/carpet/warranties/warranty-highlights,"6"""
Commercial,Philadelphia Commercial,Philadelphia Commercial,Resilient Commercial In The Grain II 20,Resilient Commercial In The Grain II 20,Barley,00740,mmllc-images.s3.amazonaws.com/shaw/5525v_00740_room.jpg,Direct Glue,Glue Down / Adhesive,48 IN,"Kid/Pet Friendly,Eco,Stain Resistant,Wear Resistant",Wear Resistant,Above/On/Below,All Grades,No,Shaw,Philadelphia Commercial Resilient Commercial In The Grain II 20 Barley,No,Yes,Carton,0,"6"" x 4'",00740_5525V,00740_5525V,00740_5525V,active,5525V,mmllc-images.s3.amazonaws.com/shaw/5525v_00740_main.jpg,2.388 mm,https://shawfloors.com/flooring/how-to/carpet/warranties/warranty-highlights,"6"""
Commercial,Philadelphia Commercial,Philadelphia Commercial,Resilient Commercial In The Grain II 20,Resilient Commercial In The Grain II 20,Briarwood,05019,mmllc-images.s3.amazonaws.com/shaw/5525v_05019_room.jpg,Direct Glue,Glue Down / Adhesive,48 IN,"Kid/Pet Friendly,Eco,Stain Resistant,Wear Resistant",Wear Resistant,Above/On/Below,All Grades,No,Shaw,Philadelphia Commercial Resilient Commercial In The Grain II 20 Briarwood,No,Yes,Carton,0,"6"" x 4'",05019_5525V,05019_5525V,05019_5525V,active,5525V,mmllc-images.s3.amazonaws.com/shaw/5525v_05019_main.jpg,2.388 mm,https://shawfloors.com/flooring/how-to/carpet/warranties/warranty-highlights,"6"""
Commercial,Philadelphia Commercial,Philadelphia Commercial,Resilient Commercial In The Grain II 20,Resilient Commercial In The Grain II 20,Burlwood,07008,mmllc-images.s3.amazonaws.com/shaw/5525v_07008_room.jpg,Direct Glue,Glue Down / Adhesive,48 IN,"Kid/Pet Friendly,Eco,Stain Resistant,Wear Resistant",Wear Resistant,Above/On/Below,All Grades,No,Shaw,Philadelphia Commercial Resilient Commercial In The Grain II 20 Burlwood,No,Yes,Carton,0,"6"" x 4'",07008_5525V,07008_5525V,07008_5525V,active,5525V,mmllc-images.s3.amazonaws.com/shaw/5525v_07008_main.jpg,2.388 mm,https://shawfloors.com/flooring/how-to/carpet/warranties/warranty-highlights,"6"""
Commercial,Philadelphia Commercial,Philadelphia Commercial,Resilient Commercial In The Grain II 20,Resilient Commercial In The Grain II 20,Cotton Seed,07004,mmllc-images.s3.amazonaws.com/shaw/5525v_07004_room.jpg,Direct Glue,Glue Down / Adhesive,48 IN,"Kid/Pet Friendly,Eco,Stain Resistant,Wear Resistant",Wear Resistant,Above/On/Below,All Grades,No,Shaw,Philadelphia Commercial Resilient Commercial In The Grain II 20 Cotton Seed,No,Yes,Carton,0,"6"" x 4'",07004_5525V,07004_5525V,07004_5525V,active,5525V,mmllc-images.s3.amazonaws.com/shaw/5525v_07004_main.jpg,2.388 mm,https://shawfloors.com/flooring/how-to/carpet/warranties/warranty-highlights,"6"""
Commercial,Philadelphia Commercial,Philadelphia Commercial,Resilient Commercial In The Grain II 20,Resilient Commercial In The Grain II 20,Drift,05013,mmllc-images.s3.amazonaws.com/shaw/5525v_05013_room.jpg,Direct Glue,Glue Down / Adhesive,48 IN,"Kid/Pet Friendly,Eco,Stain Resistant,Wear Resistant",Wear Resistant,Above/On/Below,All Grades,No,Shaw,Philadelphia Commercial Resilient Commercial In The Grain II 20 Drift,No,Yes,Carton,0,"6"" x 4'",05013_5525V,05013_5525V,05013_5525V,active,5525V,mmllc-images.s3.amazonaws.com/shaw/5525v_05013_main.jpg,2.388 mm,https://shawfloors.com/flooring/how-to/carpet/warranties/warranty-highlights,"6"""
Commercial,Philadelphia Commercial,Philadelphia Commercial,Resilient Commercial In The Grain II 20,Resilient Commercial In The Grain II 20,Farro,00684,mmllc-images.s3.amazonaws.com/shaw/5525v_00684_room.jpg,Direct Glue,Glue Down / Adhesive,48 IN,"Kid/Pet Friendly,Eco,Stain Resistant,Wear Resistant",Wear Resistant,Above/On/Below,All Grades,No,Shaw,Philadelphia Commercial Resilient Commercial In The Grain II 20 Farro,No,Yes,Carton,0,"6"" x 4'",00684_5525V,00684_5525V,00684_5525V,active,5525V,mmllc-images.s3.amazonaws.com/shaw/5525v_00684_main.jpg,2.388 mm,https://shawfloors.com/flooring/how-to/carpet/warranties/warranty-highlights,"6"""
Commercial,Philadelphia Commercial,Philadelphia Commercial,Resilient Commercial In The Grain II 20,Resilient Commercial In The Grain II 20,Fir,00174,mmllc-images.s3.amazonaws.com/shaw/5525v_00174_room.jpg,Direct Glue,Glue Down / Adhesive,48 IN,"Kid/Pet Friendly,Eco,Stain Resistant,Wear Resistant",Wear Resistant,Above/On/Below,All Grades,No,Shaw,Philadelphia Commercial Resilient Commercial In The Grain II 20 Fir,No,Yes,Carton,0,"6"" x 4'",00174_5525V,00174_5525V,00174_5525V,active,5525V,mmllc-images.s3.amazonaws.com/shaw/5525v_00174_main.jpg,2.388 mm,https://shawfloors.com/flooring/how-to/carpet/warranties/warranty-highlights,"6"""
Commercial,Philadelphia Commercial,Philadelphia Commercial,Resilient Commercial In The Grain II 20,Resilient Commercial In The Grain II 20,Flaxseed,00568,mmllc-images.s3.amazonaws.com/shaw/5525v_00568_room.jpg,Direct Glue,Glue Down / Adhesive,48 IN,"Kid/Pet Friendly,Eco,Stain Resistant,Wear Resistant",Wear Resistant,Above/On/Below,All Grades,No,Shaw,Philadelphia Commercial Resilient Commercial In The Grain II 20 Flaxseed,No,Yes,Carton,0,"6"" x 4'",00568_5525V,00568_5525V,00568_5525V,active,5525V,mmllc-images.s3.amazonaws.com/shaw/5525v_00568_main.jpg,2.388 mm,https://shawfloors.com/flooring/how-to/carpet/warranties/warranty-highlights,"6"""
Commercial,Philadelphia Commercial,Philadelphia Commercial,Resilient Commercial In The Grain II 20,Resilient Commercial In The Grain II 20,Freekeh,00564,mmllc-images.s3.amazonaws.com/shaw/5525v_00564_room.jpg,Direct Glue,Glue Down / Adhesive,48 IN,"Kid/Pet Friendly,Eco,Stain Resistant,Wear Resistant",Wear Resistant,Above/On/Below,All Grades,No,Shaw,Philadelphia Commercial Resilient Commercial In The Grain II 20 Freekeh,No,Yes,Carton,0,"6"" x 4'",00564_5525V,00564_5525V,00564_5525V,active,5525V,mmllc-images.s3.amazonaws.com/shaw/5525v_00564_main.jpg,2.388 mm,https://shawfloors.com/flooring/how-to/carpet/warranties/warranty-highlights,"6"""
Commercial,Philadelphia Commercial,Philadelphia Commercial,Resilient Commercial In The Grain II 20,Resilient Commercial In The Grain II 20,Frosted Oats,00559,mmllc-images.s3.amazonaws.com/shaw/5525v_00559_room.jpg,Direct Glue,Glue Down / Adhesive,48 IN,"Kid/Pet Friendly,Eco,Stain Resistant,Wear Resistant",Wear Resistant,Above/On/Below,All Grades,No,Shaw,Philadelphia Commercial Resilient Commercial In The Grain II 20 Frosted Oats,No,Yes,Carton,0,"6"" x 4'",00559_5525V,00559_5525V,00559_5525V,active,5525V,mmllc-images.s3.amazonaws.com/shaw/5525v_00559_main.jpg,2.388 mm,https://shawfloors.com/flooring/how-to/carpet/warranties/warranty-highlights,"6"""
Commercial,Philadelphia Commercial,Philadelphia Commercial,Resilient Commercial In The Grain II 20,Resilient Commercial In The Grain II 20,Hemp,00216,mmllc-images.s3.amazonaws.com/shaw/5525v_00216_room.jpg,Direct Glue,Glue Down / Adhesive,48 IN,"Kid/Pet Friendly,Eco,Stain Resistant,Wear Resistant",Wear Resistant,Above/On/Below,All Grades,No,Shaw,Philadelphia Commercial Resilient Commercial In The Grain II 20 Hemp,No,Yes,Carton,0,"6"" x 4'",00216_5525V,00216_5525V,00216_5525V,active,5525V,mmllc-images.s3.amazonaws.com/shaw/5525v_00216_main.jpg,2.388 mm,https://shawfloors.com/flooring/how-to/carpet/warranties/warranty-highlights,"6"""
Commercial,Philadelphia Commercial,Philadelphia Commercial,Resilient Commercial In The Grain II 20,Resilient Commercial In The Grain II 20,Millet,00256,mmllc-images.s3.amazonaws.com/shaw/5525v_00256_room.jpg,Direct Glue,Glue Down / Adhesive,48 IN,"Kid/Pet Friendly,Eco,Stain Resistant,Wear Resistant",Wear Resistant,Above/On/Below,All Grades,No,Shaw,Philadelphia Commercial Resilient Commercial In The Grain II 20 Millet,No,Yes,Carton,0,"6"" x 4'",00256_5525V,00256_5525V,00256_5525V,active,5525V,mmllc-images.s3.amazonaws.com/shaw/5525v_00256_main.jpg,2.388 mm,https://shawfloors.com/flooring/how-to/carpet/warranties/warranty-highlights,"6"""
Commercial,Philadelphia Commercial,Philadelphia Commercial,Resilient Commercial In The Grain II 20,Resilient Commercial In The Grain II 20,Milo,00572,mmllc-images.s3.amazonaws.com/shaw/5525v_00572_room.jpg,Direct Glue,Glue Down / Adhesive,48 IN,"Kid/Pet Friendly,Eco,Stain Resistant,Wear Resistant",Wear Resistant,Above/On/Below,All Grades,No,Shaw,Philadelphia Commercial Resilient Commercial In The Grain II 20 Milo,No,Yes,Carton,0,"6"" x 4'",00572_5525V,00572_5525V,00572_5525V,active,5525V,mmllc-images.s3.amazonaws.com/shaw/5525v_00572_main.jpg,2.388 mm,https://shawfloors.com/flooring/how-to/carpet/warranties/warranty-highlights,"6"""
Commercial,Philadelphia Commercial,Philadelphia Commercial,Resilient Commercial In The Grain II 20,Resilient Commercial In The Grain II 20,Nutshell,00173,mmllc-images.s3.amazonaws.com/shaw/5525v_00173_room.jpg,Direct Glue,Glue Down / Adhesive,48 IN,"Kid/Pet Friendly,Eco,Stain Resistant,Wear Resistant",Wear Resistant,Above/On/Below,All Grades,No,Shaw,Philadelphia Commercial Resilient Commercial In The Grain II 20 Nutshell,No,Yes,Carton,0,"6"" x 4'",00173_5525V,00173_5525V,00173_5525V,active,5525V,mmllc-images.s3.amazonaws.com/shaw/5525v_00173_main.jpg,2.388 mm,https://shawfloors.com/flooring/how-to/carpet/warranties/warranty-highlights,"6"""
Commercial,Philadelphia Commercial,Philadelphia Commercial,Resilient Commercial In The Grain II 20,Resilient Commercial In The Grain II 20,Oakwood,07007,mmllc-images.s3.amazonaws.com/shaw/5525v_07007_room.jpg,Direct Glue,Glue Down / Adhesive,48 IN,"Kid/Pet Friendly,Eco,Stain Resistant,Wear Resistant",Wear Resistant,Above/On/Below,All Grades,No,Shaw,Philadelphia Commercial Resilient Commercial In The Grain II 20 Oakwood,No,Yes,Carton,0,"6"" x 4'",07007_5525V,07007_5525V,07007_5525V,active,5525V,mmllc-images.s3.amazonaws.com/shaw/5525v_07007_main.jpg,2.388 mm,https://shawfloors.com/flooring/how-to/carpet/warranties/warranty-highlights,"6"""
Commercial,Philadelphia Commercial,Philadelphia Commercial,Resilient Commercial In The Grain II 20,Resilient Commercial In The Grain II 20,Rye,00116,mmllc-images.s3.amazonaws.com/shaw/5525v_00116_room.jpg,Direct Glue,Glue Down / Adhesive,48 IN,"Kid/Pet Friendly,Eco,Stain Resistant,Wear Resistant",Wear Resistant,Above/On/Below,All Grades,No,Shaw,Philadelphia Commercial Resilient Commercial In The Grain II 20 Rye,No,Yes,Carton,0,"6"" x 4'",00116_5525V,00116_5525V,00116_5525V,active,5525V,mmllc-images.s3.amazonaws.com/shaw/5525v_00116_main.jpg,2.388 mm,https://shawfloors.com/flooring/how-to/carpet/warranties/warranty-highlights,"6"""
Commercial,Philadelphia Commercial,Philadelphia Commercial,Resilient Commercial In The Grain II 20,Resilient Commercial In The Grain II 20,Sandalwood,07003,mmllc-images.s3.amazonaws.com/shaw/5525v_07003_room.jpg,Direct Glue,Glue Down / Adhesive,48 IN,"Kid/Pet Friendly,Eco,Stain Resistant,Wear Resistant",Wear Resistant,Above/On/Below,All Grades,No,Shaw,Philadelphia Commercial Resilient Commercial In The Grain II 20 Sandalwood,No,Yes,Carton,0,"6"" x 4'",07003_5525V,07003_5525V,07003_5525V,active,5525V,mmllc-images.s3.amazonaws.com/shaw/5525v_07003_main.jpg,2.388 mm,https://shawfloors.com/flooring/how-to/carpet/warranties/warranty-highlights,"6"""
Commercial,Philadelphia Commercial,Philadelphia Commercial,Resilient Commercial In The Grain II 20,Resilient Commercial In The Grain II 20,Spelt,00775,mmllc-images.s3.amazonaws.com/shaw/5525v_00775_room.jpg,Direct Glue,Glue Down / Adhesive,48 IN,"Kid/Pet Friendly,Eco,Stain Resistant,Wear Resistant",Wear Resistant,Above/On/Below,All Grades,No,Shaw,Philadelphia Commercial Resilient Commercial In The Grain II 20 Spelt,No,Yes,Carton,0,"6"" x 4'",00775_5525V,00775_5525V,00775_5525V,active,5525V,mmllc-images.s3.amazonaws.com/shaw/5525v_00775_main.jpg,2.388 mm,https://shawfloors.com/flooring/how-to/carpet/warranties/warranty-highlights,"6"""
Commercial,Philadelphia Commercial,Philadelphia Commercial,Resilient Commercial In The Grain II 20,Resilient Commercial In The Grain II 20,Wheat,00774,mmllc-images.s3.amazonaws.com/shaw/5525v_00774_room.jpg,Direct Glue,Glue Down / Adhesive,48 IN,"Kid/Pet Friendly,Eco,Stain Resistant,Wear Resistant",Wear Resistant,Above/On/Below,All Grades,No,Shaw,Philadelphia Commercial Resilient Commercial In The Grain II 20 Wheat,No,Yes,Carton,0,"6"" x 4'",00774_5525V,00774_5525V,00774_5525V,active,5525V,mmllc-images.s3.amazonaws.com/shaw/5525v_00774_main.jpg,2.388 mm,https://shawfloors.com/flooring/how-to/carpet/warranties/warranty-highlights,"6"""
Residential,Shaw Floors,Shaw Floors,Resilient Residential Coastal Plains 12,Resilient Residential Coastal Plains 12,Annapolis,00122,mmllc-images.s3.amazonaws.com/shaw/0609v_00122_room.jpg,,,"0.000""","Kid/Pet Friendly,Eco,Stain Resistant,Wear Resistant",Wear Resistant,,,No,Shaw,Shaw Floors Resilient Residential Coastal Plains 12 Annapolis,No,Yes,Carton,0,"12' x ",00122_0609V,00122_0609V,00122_0609V,active,0609V,mmllc-images.s3.amazonaws.com/shaw/0609v_00122_main.jpg,,https://shawfloors.com/flooring/how-to/carpet/warranties/warranty-highlights,"144"""
Residential,Shaw Floors,Shaw Floors,Resilient Residential Coastal Plains 12,Resilient Residential Coastal Plains 12,Bama,00605,mmllc-images.s3.amazonaws.com/shaw/0609v_00605_room.jpg,,,"0.000""","Kid/Pet Friendly,Eco,Stain Resistant,Wear Resistant",Wear Resistant,,,No,Shaw,Shaw Floors Resilient Residential Coastal Plains 12 Bama,No,Yes,Carton,0,"12' x ",00605_0609V,00605_0609V,00605_0609V,active,0609V,mmllc-images.s3.amazonaws.com/shaw/0609v_00605_main.jpg,,https://shawfloors.com/flooring/how-to/carpet/warranties/warranty-highlights,"144"""
Residential,Shaw Floors,Shaw Floors,Resilient Residential Coastal Plains 12,Resilient Residential Coastal Plains 12,Cape Cod,00106,mmllc-images.s3.amazonaws.com/shaw/0609v_00106_room.jpg,,,"0.000""","Kid/Pet Friendly,Eco,Stain Resistant,Wear Resistant",Wear Resistant,,,No,Shaw,Shaw Floors Resilient Residential Coastal Plains 12 Cape Cod,No,Yes,Carton,0,"12' x ",00106_0609V,00106_0609V,00106_0609V,active,0609V,mmllc-images.s3.amazonaws.com/shaw/0609v_00106_main.jpg,,https://shawfloors.com/flooring/how-to/carpet/warranties/warranty-highlights,"144"""
Residential,Shaw Floors,Shaw Floors,Resilient Residential Coastal Plains 12,Resilient Residential Coastal Plains 12,Carolina,00518,mmllc-images.s3.amazonaws.com/shaw/0609v_00518_room.jpg,,,"0.000""","Kid/Pet Friendly,Eco,Stain Resistant,Wear Resistant",Wear Resistant,,,No,Shaw,Shaw Floors Resilient Residential Coastal Plains 12 Carolina,No,Yes,Carton,0,"12' x ",00518_0609V,00518_0609V,00518_0609V,active,0609V,mmllc-images.s3.amazonaws.com/shaw/0609v_00518_main.jpg,,https://shawfloors.com/flooring/how-to/carpet/warranties/warranty-highlights,"144"""
Residential,Shaw Floors,Shaw Floors,Resilient Residential Coastal Plains 12,Resilient Residential Coastal Plains 12,Chesapeake,00102,mmllc-images.s3.amazonaws.com/shaw/0609v_00102_room.jpg,,,"0.000""","Kid/Pet Friendly,Eco,Stain Resistant,Wear Resistant",Wear Resistant,,,No,Shaw,Shaw Floors Resilient Residential Coastal Plains 12 Chesapeake,No,Yes,Carton,0,"12' x ",00102_0609V,00102_0609V,00102_0609V,active,0609V,mmllc-images.s3.amazonaws.com/shaw/0609v_00102_main.jpg,,https://shawfloors.com/flooring/how-to/carpet/warranties/warranty-highlights,"144"""
Residential,Shaw Floors,Shaw Floors,Resilient Residential Coastal Plains 12,Resilient Residential Coastal Plains 12,Delaware,00506,mmllc-images.s3.amazonaws.com/shaw/0609v_00506_room.jpg,,,"0.000""","Kid/Pet Friendly,Eco,Stain Resistant,Wear Resistant",Wear Resistant,,,No,Shaw,Shaw Floors Resilient Residential Coastal Plains 12 Delaware,No,Yes,Carton,0,"12' x ",00506_0609V,00506_0609V,00506_0609V,active,0609V,mmllc-images.s3.amazonaws.com/shaw/0609v_00506_main.jpg,,https://shawfloors.com/flooring/how-to/carpet/warranties/warranty-highlights,"144"""
Residential,Shaw Floors,Shaw Floors,Resilient Residential Coastal Plains 12,Resilient Residential Coastal Plains 12,Delmarva,00125,mmllc-images.s3.amazonaws.com/shaw/0609v_00125_room.jpg,,,"0.000""","Kid/Pet Friendly,Eco,Stain Resistant,Wear Resistant",Wear Resistant,,,No,Shaw,Shaw Floors Resilient Residential Coastal Plains 12 Delmarva,No,Yes,Carton,0,"12' x ",00125_0609V,00125_0609V,00125_0609V,active,0609V,mmllc-images.s3.amazonaws.com/shaw/0609v_00125_main.jpg,,https://shawfloors.com/flooring/how-to/carpet/warranties/warranty-highlights,"144"""
Residential,Shaw Floors,Shaw Floors,Resilient Residential Coastal Plains 12,Resilient Residential Coastal Plains 12,Florida,00118,mmllc-images.s3.amazonaws.com/shaw/0609v_00118_room.jpg,,,"0.000""","Kid/Pet Friendly,Eco,Stain Resistant,Wear Resistant",Wear Resistant,,,No,Shaw,Shaw Floors Resilient Residential Coastal Plains 12 Florida,No,Yes,Carton,0,"12' x ",00118_0609V,00118_0609V,00118_0609V,active,0609V,mmllc-images.s3.amazonaws.com/shaw/0609v_00118_main.jpg,,https://shawfloors.com/flooring/how-to/carpet/warranties/warranty-highlights,"144"""
Residential,Shaw Floors,Shaw Floors,Resilient Residential Coastal Plains 12,Resilient Residential Coastal Plains 12,Georgia,00601,mmllc-images.s3.amazonaws.com/shaw/0609v_00601_room.jpg,,,"0.000""","Kid/Pet Friendly,Eco,Stain Resistant,Wear Resistant",Wear Resistant,,,No,Shaw,Shaw Floors Resilient Residential Coastal Plains 12 Georgia,No,Yes,Carton,0,"12' x ",00601_0609V,00601_0609V,00601_0609V,active,0609V,mmllc-images.s3.amazonaws.com/shaw/0609v_00601_main.jpg,,https://shawfloors.com/flooring/how-to/carpet/warranties/warranty-highlights,"144"""
Residential,Shaw Floors,Shaw Floors,Resilient Residential Coastal Plains 12,Resilient Residential Coastal Plains 12,Louisiana,00508,mmllc-images.s3.amazonaws.com/shaw/0609v_00508_room.jpg,,,"0.000""","Kid/Pet Friendly,Eco,Stain Resistant,Wear Resistant",Wear Resistant,,,No,Shaw,Shaw Floors Resilient Residential Coastal Plains 12 Louisiana,No,Yes,Carton,0,"12' x ",00508_0609V,00508_0609V,00508_0609V,active,0609V,mmllc-images.s3.amazonaws.com/shaw/0609v_00508_main.jpg,,https://shawfloors.com/flooring/how-to/carpet/warranties/warranty-highlights,"144"""
Residential,Shaw Floors,Shaw Floors,Resilient Residential Coastal Plains 12,Resilient Residential Coastal Plains 12,Maryland,00115,mmllc-images.s3.amazonaws.com/shaw/0609v_00115_room.jpg,,,"0.000""","Kid/Pet Friendly,Eco,Stain Resistant,Wear Resistant",Wear Resistant,,,No,Shaw,Shaw Floors Resilient Residential Coastal Plains 12 Maryland,No,Yes,Carton,0,"12' x ",00115_0609V,00115_0609V,00115_0609V,active,0609V,mmllc-images.s3.amazonaws.com/shaw/0609v_00115_main.jpg,,https://shawfloors.com/flooring/how-to/carpet/warranties/warranty-highlights,"144"""
Residential,Shaw Floors,Shaw Floors,Resilient Residential Coastal Plains 12,Resilient Residential Coastal Plains 12,Mississippi,00420,,,,"0.000""","Kid/Pet Friendly,Eco,Stain Resistant,Wear Resistant",Wear Resistant,,,No,Shaw,Shaw Floors Resilient Residential Coastal Plains 12 Mississippi,No,Yes,Carton,0,"12' x ",00420_0609V,00420_0609V,00420_0609V,active,0609V,mmllc-images.s3.amazonaws.com/shaw/0609v_00420_main.jpg,,https://shawfloors.com/flooring/how-to/carpet/warranties/warranty-highlights,"144"""
Residential,Shaw Floors,Shaw Floors,Resilient Residential Coastal Plains 12,Resilient Residential Coastal Plains 12,Outerbanks,00514,mmllc-images.s3.amazonaws.com/shaw/0609v_00514_room.jpg,,,"0.000""","Kid/Pet Friendly,Eco,Stain Resistant,Wear Resistant",Wear Resistant,,,No,Shaw,Shaw Floors Resilient Residential Coastal Plains 12 Outerbanks,No,Yes,Carton,0,"12' x ",00514_0609V,00514_0609V,00514_0609V,active,0609V,mmllc-images.s3.amazonaws.com/shaw/0609v_00514_main.jpg,,https://shawfloors.com/flooring/how-to/carpet/warranties/warranty-highlights,"144"""
Residential,Shaw Floors,Shaw Floors,Resilient Residential Coastal Plains 12,Resilient Residential Coastal Plains 12,Panhandle,00522,mmllc-images.s3.amazonaws.com/shaw/0609v_00522_room.jpg,,,"0.000""","Kid/Pet Friendly,Eco,Stain Resistant,Wear Resistant",Wear Resistant,,,No,Shaw,Shaw Floors Resilient Residential Coastal Plains 12 Panhandle,No,Yes,Carton,0,"12' x ",00522_0609V,00522_0609V,00522_0609V,active,0609V,mmllc-images.s3.amazonaws.com/shaw/0609v_00522_main.jpg,,https://shawfloors.com/flooring/how-to/carpet/warranties/warranty-highlights,"144"""
Residential,Shaw Floors,Shaw Floors,Resilient Residential Coastal Plains 12,Resilient Residential Coastal Plains 12,Pine Barrens,00104,mmllc-images.s3.amazonaws.com/shaw/0609v_00104_room.jpg,,,"0.000""","Kid/Pet Friendly,Eco,Stain Resistant,Wear Resistant",Wear Resistant,,,No,Shaw,Shaw Floors Resilient Residential Coastal Plains 12 Pine Barrens,No,Yes,Carton,0,"12' x ",00104_0609V,00104_0609V,00104_0609V,active,0609V,mmllc-images.s3.amazonaws.com/shaw/0609v_00104_main.jpg,,https://shawfloors.com/flooring/how-to/carpet/warranties/warranty-highlights,"144"""
Residential,Shaw Floors,Shaw Floors,Resilient Residential Coastal Plains 12,Resilient Residential Coastal Plains 12,Virginia,00203,mmllc-images.s3.amazonaws.com/shaw/0609v_00203_room.jpg,,,"0.000""","Kid/Pet Friendly,Eco,Stain Resistant,Wear Resistant",Wear Resistant,,,No,Shaw,Shaw Floors Resilient Residential Coastal Plains 12 Virginia,No,Yes,Carton,0,"12' x ",00203_0609V,00203_0609V,00203_0609V,active,0609V,mmllc-images.s3.amazonaws.com/shaw/0609v_00203_main.jpg,,https://shawfloors.com/flooring/how-to/carpet/warranties/warranty-highlights,"144"""
,Shaw Floors,Shaw Floors,SFA Largo Plank,SFA Largo Plank,Cervati,00205,mmllc-images.s3.amazonaws.com/shaw/sa608_00205_room.jpg,Float,Loose Lay,72 IN,"Kid/Pet Friendly,Eco,Stain Resistant,Wear Resistant",Wear Resistant,Above/On/Below,All Grades,No,Shaw,Shaw Floors SFA Largo Plank Cervati,No,Yes,Carton,0,"8"" x 6'",00205_SA608,00205_SA608,00205_SA608,active,SA608,mmllc-images.s3.amazonaws.com/shaw/sa608_00205_main.jpg,6.35 mm,https://shawfloors.com/flooring/how-to/carpet/warranties/warranty-highlights,"8"""
Residential,Shaw Floors,Shaw Floors,Resilient Residential Argos,Resilient Residential Argos,Arcadia,00730,mmllc-images.s3.amazonaws.com/shaw/0615v_00730_room.jpg,,,,"Kid/Pet Friendly,Eco,Stain Resistant,Wear Resistant",Wear Resistant,,,No,Shaw,Shaw Floors Resilient Residential Argos Arcadia,No,Yes,Carton,0,"13' 2"" x ",00730_0615V,00730_0615V,00730_0615V,active,0615V,mmllc-images.s3.amazonaws.com/shaw/0615v_00730_main.jpg,,https://shawfloors.com/flooring/how-to/carpet/warranties/warranty-highlights,"158"""
Residential,Shaw Floors,Shaw Floors,Resilient Residential Argos,Resilient Residential Argos,Atlantis,00728,mmllc-images.s3.amazonaws.com/shaw/0615v_00728_room.jpg,,,,"Kid/Pet Friendly,Eco,Stain Resistant,Wear Resistant",Wear Resistant,,,No,Shaw,Shaw Floors Resilient Residential Argos Atlantis,No,Yes,Carton,0,"13' 2"" x ",00728_0615V,00728_0615V,00728_0615V,active,0615V,mmllc-images.s3.amazonaws.com/shaw/0615v_00728_main.jpg,,https://shawfloors.com/flooring/how-to/carpet/warranties/warranty-highlights,"158"""
Residential,Shaw Floors,Shaw Floors,Resilient Residential Argos,Resilient Residential Argos,Avalon,00905,mmllc-images.s3.amazonaws.com/shaw/0615v_00905_room.jpg,,,,"Kid/Pet Friendly,Eco,Stain Resistant,Wear Resistant",Wear Resistant,,,No,Shaw,Shaw Floors Resilient Residential Argos Avalon,No,Yes,Carton,0,"13' 2"" x ",00905_0615V,00905_0615V,00905_0615V,active,0615V,mmllc-images.s3.amazonaws.com/shaw/0615v_00905_main.jpg,,https://shawfloors.com/flooring/how-to/carpet/warranties/warranty-highlights,"158"""
Residential,Shaw Floors,Shaw Floors,Resilient Residential Argos,Resilient Residential Argos,Cythera,00229,mmllc-images.s3.amazonaws.com/shaw/0615v_00229_room.jpg,,,,"Kid/Pet Friendly,Eco,Stain Resistant,Wear Resistant",Wear Resistant,,,No,Shaw,Shaw Floors Resilient Residential Argos Cythera,No,Yes,Carton,0,"13' 2"" x ",00229_0615V,00229_0615V,00229_0615V,active,0615V,mmllc-images.s3.amazonaws.com/shaw/0615v_00229_main.jpg,,https://shawfloors.com/flooring/how-to/carpet/warranties/warranty-highlights,"158"""
Residential,Shaw Floors,Shaw Floors,Resilient Residential Argos,Resilient Residential Argos,Doris,00604,mmllc-images.s3.amazonaws.com/shaw/0615v_00604_room.jpg,,,,"Kid/Pet Friendly,Eco,Stain Resistant,Wear Resistant",Wear Resistant,,,No,Shaw,Shaw Floors Resilient Residential Argos Doris,No,Yes,Carton,0,"13' 2"" x ",00604_0615V,00604_0615V,00604_0615V,active,0615V,mmllc-images.s3.amazonaws.com/shaw/0615v_00604_main.jpg,,https://shawfloors.com/flooring/how-to/carpet/warranties/warranty-highlights,"158"""
Residential,Shaw Floors,Shaw Floors,Resilient Residential Argos,Resilient Residential Argos,Eion,00546,mmllc-images.s3.amazonaws.com/shaw/0615v_00546_room.jpg,,,,"Kid/Pet Friendly,Eco,Stain Resistant,Wear Resistant",Wear Resistant,,,No,Shaw,Shaw Floors Resilient Residential Argos Eion,No,Yes,Carton,0,"13' 2"" x ",00546_0615V,00546_0615V,00546_0615V,active,0615V,mmllc-images.s3.amazonaws.com/shaw/0615v_00546_main.jpg,,https://shawfloors.com/flooring/how-to/carpet/warranties/warranty-highlights,"158"""
Residential,Shaw Floors,Shaw Floors,Resilient Residential Argos,Resilient Residential Argos,Ida,00533,mmllc-images.s3.amazonaws.com/shaw/0615v_00533_room.jpg,,,,"Kid/Pet Friendly,Eco,Stain Resistant,Wear Resistant",Wear Resistant,,,No,Shaw,Shaw Floors Resilient Residential Argos Ida,No,Yes,Carton,0,"13' 2"" x ",00533_0615V,00533_0615V,00533_0615V,active,0615V,mmllc-images.s3.amazonaws.com/shaw/0615v_00533_main.jpg,,https://shawfloors.com/flooring/how-to/carpet/warranties/warranty-highlights,"158"""
Residential,Shaw Floors,Shaw Floors,Resilient Residential Argos,Resilient Residential Argos,Pleuron,00552,mmllc-images.s3.amazonaws.com/shaw/0615v_00552_room.jpg,,,,"Kid/Pet Friendly,Eco,Stain Resistant,Wear Resistant",Wear Resistant,,,No,Shaw,Shaw Floors Resilient Residential Argos Pleuron,No,Yes,Carton,0,"13' 2"" x ",00552_0615V,00552_0615V,00552_0615V,active,0615V,mmllc-images.s3.amazonaws.com/shaw/0615v_00552_main.jpg,,https://shawfloors.com/flooring/how-to/carpet/warranties/warranty-highlights,"158"""
